REG|000001|26/08/2015|08:01:01|125798|320.00|0004100289003325792743850000410|028900332579274385
REG|000002|26/08/2015|09:03:01|125874|350.00|0001230010110310000011570329694|001011031000001157
REG|000003|26/08/2015|14:58:01|126717|423.00|0001230010110310000011030422683|001011031000001103
REG|000004|26/08/2015|15:06:01|126741|500.00|0001230010110310000011120422684|001011031000001112
REG|000005|26/08/2015|15:08:01|126744|550.00|0001230010110310000011530549498|001011031000001153
REG|000006|26/08/2015|15:09:01|126745|252.00|0001230010110310000007910251382|001011031000000791
REG|000007|26/08/2015|18:40:01|127188|2360.00|0004100289003325792743850000410|028900332579274385
REG|000008|26/08/2015|19:33:01|127286|1920.00|0004100289003325792743850000410|028900332579274385