REG|000001|03/07/2015|08:58:12|487165|426.42|0001230010430310000000470426422|001043031000000047
REG|000002|03/07/2015|08:59:20|487167|418.96|0001230010500310000003270418966|001050031000000327
REG|000003|03/07/2015|09:03:35|487192|251.38|0001230010090310000011610251381|001009031000001161
REG|000004|03/07/2015|09:07:14|487193|418.96|0001230010420310000004220418962|001042031000000422
REG|000005|03/07/2015|09:09:00|487196|418.96|0001230010420310000004190418968|001042031000000419
REG|000006|03/07/2015|09:15:18|487204|418.96|0001230010420310000004160418964|001042031000000416
REG|000007|03/07/2015|09:17:37|487208|418.96|0001230010110310000008760418964|001011031000000876
REG|000008|03/07/2015|09:17:40|487209|251.38|0001230010420310000004210251381|001042031000000421
REG|000009|03/07/2015|09:19:30|487211|418.96|0001230010420310000004180418960|001042031000000418
REG|000010|03/07/2015|09:21:22|487215|418.96|0001230010090310000012730418967|001009031000001273
REG|000011|03/07/2015|09:34:50|487230|251.38|0001230010020310000011800251386|001002031000001180
REG|000012|03/07/2015|09:44:20|487231|418.96|0001230010210310000017420418966|001021031000001742
REG|000013|03/07/2015|09:56:51|487254|520.67|0001230010300110000000190520679|001030011000000019
REG|000014|03/07/2015|10:04:27|487263|670.32|0001230010070310000004500670327|001007031000000450
REG|000015|03/07/2015|10:08:36|487277|670.32|0001230010070310000004500670327|001007031000000450
REG|000016|03/07/2015|10:11:01|487282|670.32|0001230010070310000004500670327|001007031000000450
REG|000017|03/07/2015|10:18:17|487285|251.38|0001230010500310000003860251389|001050031000000386
REG|000018|03/07/2015|10:12:41|487287|586.54|0001230010070310000004550586548|001007031000000455
REG|000019|03/07/2015|10:25:58|487299|335.16|0001230010140310000015190335167|001014031000001519
REG|000020|03/07/2015|10:27:31|487304|83.08|0001230010140310000015200083088|001014031000001520
REG|000021|03/07/2015|09:26:27|487311|418.96|0001230010050310000012360418962|001005031000001236
REG|000022|03/07/2015|09:28:26|487315|418.96|0001230010050310000012350418964|001005031000001235
REG|000023|03/07/2015|10:37:18|487319|251.38|0001230010030310000010140251385|001003031000001014
REG|000024|03/07/2015|10:37:54|487322|502.74|0001230010300310000013800502744|001030031000001380
REG|000025|03/07/2015|10:32:11|487325|251.38|0001230010020310000011790251388|001002031000001179
REG|000026|03/07/2015|10:35:49|487332|418.96|0001230010090310000012230418962|001009031000001223
REG|000027|03/07/2015|10:42:55|487333|404.02|0001230010500310000003130404024|001050031000000313
REG|000028|03/07/2015|10:48:14|487346|418.96|0001230010500310000003300418960|001050031000000330
REG|000029|03/07/2015|10:53:23|487359|418.96|0001230010090310000012180418962|001009031000001218
REG|000030|03/07/2015|10:47:39|487360|418.96|0001230010090310000012670418969|001009031000001267
REG|000031|03/07/2015|10:50:24|487368|251.38|0001230010090310000012680251384|001009031000001268
REG|000032|03/07/2015|10:58:12|487372|418.96|0001230010500310000005490418965|001050031000000549
REG|000033|03/07/2015|10:52:04|487373|335.16|0001230010090310000012700335167|001009031000001270
REG|000034|03/07/2015|10:57:44|487390|251.38|0001230010090310000012690251382|001009031000001269
REG|000035|03/07/2015|10:59:29|487394|418.96|0001230010090310000012660418961|001009031000001266
REG|000036|03/07/2015|11:01:04|487403|251.38|0001230010090310000012650251380|001009031000001265
REG|000037|03/07/2015|11:03:02|487409|418.96|0001230010110310000008020418960|001011031000000802
REG|000038|03/07/2015|11:03:20|487410|251.38|0001230010090310000012650251380|001009031000001265
REG|000039|03/07/2015|10:04:35|487414|404.02|0001230010050310000012100404025|001005031000001210
REG|000040|03/07/2015|11:07:45|487421|335.16|0001230010090310000012710335165|001009031000001271
REG|000041|03/07/2015|11:15:23|487423|404.02|0001230010500310000005970404022|001050031000000597
REG|000042|03/07/2015|11:18:45|487435|404.02|0001230010500310000005980404020|001050031000000598
REG|000043|03/07/2015|11:35:23|487475|335.16|0001230010090310000012150335162|001009031000001215
REG|000044|03/07/2015|11:41:49|487476|418.96|0001230010500310000005530418967|001050031000000553
REG|000045|03/07/2015|11:36:50|487481|335.16|0001230010090310000012160335160|001009031000001216
REG|000046|03/07/2015|11:39:50|487488|335.16|0001230010090310000012140335165|001009031000001214
REG|000047|03/07/2015|11:41:35|487491|418.96|0001230010090310000012120418965|001009031000001212
REG|000048|03/07/2015|11:48:27|487494|418.96|0001230010040310000015350418960|001004031000001535
REG|000049|03/07/2015|11:44:47|487503|418.96|0001230010110310000008810418964|001011031000000881
REG|000050|03/07/2015|11:46:55|487509|418.96|0001230010110310000008790418968|001011031000000879
REG|000051|03/07/2015|12:00:38|487524|335.16|0001230010520310000003080335166|001052031000000308
REG|000052|03/07/2015|11:56:08|487527|418.96|0001230010030310000012070418968|001003031000001207
REG|000053|03/07/2015|11:57:41|487534|251.38|0001230010030310000011120251387|001003031000001112
REG|000054|03/07/2015|12:04:22|487535|418.96|0001230010110310000007570418966|001011031000000757
REG|000055|03/07/2015|12:04:59|487537|418.96|0001230010520310000003110418966|001052031000000311
REG|000056|03/07/2015|12:05:47|487541|418.96|0001230010110310000005080418963|001011031000000508
REG|000057|03/07/2015|11:59:30|487544|251.38|0001230010030310000011150251380|001003031000001115
REG|000058|03/07/2015|12:01:16|487548|251.38|0001230010030310000011110251389|001003031000001111
REG|000059|03/07/2015|12:11:42|487562|418.96|0001230010110310000005110418967|001011031000000511
REG|000060|03/07/2015|12:14:23|487572|418.96|0001230010110310000005100418969|001011031000000510
REG|000061|03/07/2015|12:08:22|487575|167.58|0001230010310310000012670167586|001031031000001267
REG|000062|03/07/2015|12:17:50|487589|418.96|0001230010500310000001010418965|001050031000000101
REG|000063|03/07/2015|12:20:11|487592|418.96|0001230010030310000012060418960|001003031000001206
REG|000064|03/07/2015|12:26:59|487595|404.02|0001230010490310000011810404026|001049031000001181
REG|000065|03/07/2015|12:20:52|487596|251.38|0001230010050310000013830251389|001005031000001383
REG|000066|03/07/2015|12:28:36|487609|251.38|0001230010020310000009500251383|001002031000000950
REG|000067|03/07/2015|12:39:05|487622|418.96|0001230010040310000015340418963|001004031000001534
REG|000068|03/07/2015|12:41:40|487634|418.96|0001230010520310000003990418961|001052031000000399
REG|000069|03/07/2015|12:42:10|487636|418.96|0001230010040310000015360418968|001004031000001536
REG|000070|03/07/2015|12:37:34|487645|418.96|0001230010060310000008270418967|001006031000000827
REG|000071|03/07/2015|12:45:03|487647|251.38|0001230010500310000006080251386|001050031000000608
REG|000072|03/07/2015|12:39:03|487648|167.58|0001230010020310000011770167588|001002031000001177
REG|000073|03/07/2015|12:40:07|487649|418.96|0001230010310310000011090418967|001031031000001109
REG|000074|03/07/2015|12:49:37|487657|418.96|0001230010500310000005020418964|001050031000000502
REG|000075|03/07/2015|12:43:35|487658|167.58|0001230010020310000011820167588|001002031000001182
REG|000076|03/07/2015|12:51:15|487662|418.96|0001230010030310000010370418969|001003031000001037
REG|000077|03/07/2015|12:51:52|487665|418.96|0001230010500310000005060418965|001050031000000506
REG|000078|03/07/2015|12:49:20|487674|251.38|0001230010110310000005340251386|001011031000000534
REG|000079|03/07/2015|12:58:14|487680|418.96|0001230010500310000005570418968|001050031000000557
REG|000080|03/07/2015|12:54:53|487688|418.96|0001230010050310000013300418963|001005031000001330
REG|000081|03/07/2015|13:02:19|487692|418.96|0001230010500310000000370418961|001050031000000037
REG|000082|03/07/2015|13:09:07|487714|418.96|0001230010500310000002850418966|001050031000000285
REG|000083|03/07/2015|13:11:34|487724|418.96|0001230010500310000002790418969|001050031000000279
REG|000084|03/07/2015|13:24:44|487743|251.38|0001230010040310000015310251386|001004031000001531
REG|000085|03/07/2015|13:25:10|487744|251.38|0001230010500310000005590251381|001050031000000559
REG|000086|03/07/2015|13:26:21|487751|418.96|0001230010500310000005630418966|001050031000000563
REG|000087|03/07/2015|13:27:41|487757|418.96|0001230010500310000005640418964|001050031000000564
REG|000088|03/07/2015|13:29:57|487765|418.96|0001230010500310000005650418961|001050031000000565
REG|000089|03/07/2015|13:31:10|487770|418.96|0001230010500310000005610418960|001050031000000561
REG|000090|03/07/2015|13:37:50|487778|418.96|0001230010040310000016260418967|001004031000001626
REG|000091|03/07/2015|13:31:32|487779|251.38|0001230010310310000014210251383|001031031000001421
REG|000092|03/07/2015|13:39:10|487783|418.96|0001230010040310000016300418969|001004031000001630
REG|000093|03/07/2015|13:45:13|487806|418.96|0001230010040310000016310418967|001004031000001631
REG|000094|03/07/2015|13:50:30|487820|255.86|0001230010210310000016210255869|001021031000001621
REG|000095|03/07/2015|13:50:53|487822|418.96|0001230010040310000016270418965|001004031000001627
REG|000096|03/07/2015|13:44:37|487824|418.96|0001230010020310000011780418963|001002031000001178
REG|000097|03/07/2015|13:57:29|487842|341.14|0001230010210310000016240341143|001021031000001624
REG|000098|03/07/2015|13:57:38|487843|418.96|0001230010040310000016290418961|001004031000001629
REG|000099|03/07/2015|13:57:53|487844|418.96|0001230010040310000016280418963|001004031000001628
REG|000100|03/07/2015|13:59:25|487851|341.14|0001230010210310000016230341145|001021031000001623
REG|000101|03/07/2015|14:20:53|487893|341.14|0001230010210310000016200341141|001021031000001620
REG|000102|03/07/2015|14:21:45|487894|255.86|0001230010210310000016220255867|001021031000001622
REG|000103|03/07/2015|14:22:33|487901|209.48|0001230010210310000024730209481|001021031000002473
REG|000104|03/07/2015|14:24:02|487906|418.96|0001230010310310000015500418962|001031031000001550
REG|000105|03/07/2015|14:21:03|487914|418.96|0001230010030310000009840418963|001003031000000984
REG|000106|03/07/2015|14:28:03|487916|508.06|0001230010210110000000750508063|001021011000000075
REG|000107|03/07/2015|14:31:33|487932|251.38|0001230010500310000003260251385|001050031000000326
REG|000108|03/07/2015|14:32:58|487939|335.16|0001230010490310000000290335164|001049031000000029
REG|000109|03/07/2015|14:44:40|487966|418.96|0001230010040310000015320418967|001004031000001532
REG|000110|03/07/2015|14:41:12|487973|418.96|0001230010030310000011380418965|001003031000001138
REG|000111|03/07/2015|14:55:41|487994|335.16|0001230010500310000001450335166|001050031000000145
REG|000112|03/07/2015|14:58:23|487999|418.96|0001230010090310000012200418968|001009031000001220
REG|000113|03/07/2015|15:10:36|488038|255.86|0001230010090310000010010255869|001009031000001001
REG|000114|03/07/2015|15:11:00|488042|418.96|0001230010420310000002440418960|001042031000000244
REG|000115|03/07/2015|15:12:13|488049|251.38|0001230010420310000002470251380|001042031000000247
REG|000116|03/07/2015|15:18:20|488074|335.16|0001230010500310000004510335168|001050031000000451
REG|000117|03/07/2015|15:33:23|488118|335.16|0001230010500310000005350335168|001050031000000535
REG|000118|03/07/2015|13:30:52|488128|418.96|0001230010370310000007540418968|001037031000000754
REG|000119|03/07/2015|15:31:29|488132|418.96|0001230010050310000013310418961|001005031000001331
REG|000120|03/07/2015|15:28:52|488136|418.96|0001230010110310000006880418963|001011031000000688
REG|000121|03/07/2015|15:50:39|488171|959.68|0001230010210110000000730959683|001021011000000073
REG|000122|03/07/2015|15:51:20|488175|418.96|0001230010490310000005880418965|001049031000000588
REG|000123|03/07/2015|15:46:53|488179|335.16|0001230010310310000011020335166|001031031000001102
REG|000124|03/07/2015|15:52:37|488200|404.02|0001230010050310000012170404020|001005031000001217
REG|000125|03/07/2015|16:00:18|488207|564.05|0001230010470110000001210564055|001047011000000121
REG|000126|03/07/2015|16:00:53|488231|251.38|0001230010020310000011610251386|001002031000001161
REG|000127|03/07/2015|16:01:01|488232|620.04|0001230010310310000014960620043|001031031000001496
REG|000128|03/07/2015|16:14:53|488269|418.96|0001230010070310000004430418961|001007031000000443
REG|000129|03/07/2015|15:15:30|488274|404.02|0001230010050310000012090404027|001005031000001209
REG|000130|03/07/2015|16:16:03|488277|418.96|0001230010070310000004430418961|001007031000000443
REG|000131|03/07/2015|16:27:54|488305|418.96|0001230010050310000013800418968|001005031000001380
REG|000132|03/07/2015|16:40:07|488318|335.16|0001230010430310000005020335163|001043031000000502
REG|000133|03/07/2015|16:43:29|488323|404.02|0001230010500310000003100404020|001050031000000310
REG|000134|03/07/2015|16:44:23|488326|200.00|0001230010430310000007880200008|001043031000000788
REG|000135|03/07/2015|16:46:35|488329|418.96|0001230010090310000012220418964|001009031000001222
REG|000136|03/07/2015|16:53:57|488340|251.38|0001230010030310000011870251389|001003031000001187
REG|000137|03/07/2015|16:51:15|488359|335.16|0001230010090310000012270335167|001009031000001227
REG|000138|03/07/2015|16:54:52|488375|418.96|0001230010050310000013850418967|001005031000001385
REG|000139|03/07/2015|16:58:36|488389|418.96|0001230010420310000004230418960|001042031000000423
REG|000140|03/07/2015|17:23:12|488441|167.58|0001230010090310000011410167589|001009031000001141
REG|000141|03/07/2015|17:30:48|488445|335.16|0001230010430310000003800335164|001043031000000380
REG|000142|03/07/2015|17:25:05|488449|418.96|0001230010060310000005690418965|001006031000000569
REG|000143|03/07/2015|17:27:19|488457|418.96|0001230010020310000011590418963|001002031000001159
REG|000144|03/07/2015|17:30:00|488470|418.96|0001230010020310000011580418965|001002031000001158
REG|000145|03/07/2015|17:43:36|488496|733.86|0001230010470110000001190733860|001047011000000119
REG|000146|03/07/2015|17:43:45|488497|418.96|0001230010500310000006250418963|001050031000000625
REG|000147|03/07/2015|17:43:53|488500|433.88|0001230010140110000000100433884|001014011000000010
REG|000148|03/07/2015|17:39:05|488507|837.91|0001230010070310000004100837912|001007031000000410
REG|000149|03/07/2015|17:46:22|488511|418.96|0001230010500310000004970418967|001050031000000497
REG|000150|03/07/2015|17:47:37|488516|167.58|0001230010030310000011410167582|001003031000001141
REG|000151|03/07/2015|17:49:46|488523|251.38|0001230010030310000011450251387|001003031000001145
REG|000152|03/07/2015|17:51:28|488525|418.96|0001230010420310000003900418961|001042031000000390
REG|000153|03/07/2015|16:48:07|488544|170.57|0001230010060310000007180170577|001006031000000718
REG|000154|03/07/2015|16:59:46|488594|418.96|0001230010050310000012340418967|001005031000001234
REG|000155|03/07/2015|18:00:53|488599|341.14|0001230010030310000012370341142|001003031000001237
REG|000156|03/07/2015|18:10:22|488610|251.38|0001230010300310000017370251384|001030031000001737
REG|000157|03/07/2015|18:11:55|488617|418.96|0001230010300310000017340418964|001030031000001734
REG|000158|03/07/2015|18:13:28|488621|418.96|0001230010300310000017330418966|001030031000001733
REG|000159|03/07/2015|18:14:52|488630|418.96|0001230010310310000014180418962|001031031000001418
REG|000160|03/07/2015|18:14:57|488631|418.96|0001230010300310000017320418968|001030031000001732
REG|000161|03/07/2015|18:09:19|488632|251.38|0001230010070310000006030251387|001007031000000603
REG|000162|03/07/2015|18:16:19|488634|335.16|0001230010300310000017350335165|001030031000001735
REG|000163|03/07/2015|18:16:50|488638|251.38|0001230010310310000014220251381|001031031000001422
REG|000164|03/07/2015|18:18:00|488644|418.96|0001230010310310000014190418960|001031031000001419
REG|000165|03/07/2015|18:19:08|488649|418.96|0001230010300310000017360418969|001030031000001736
REG|000166|03/07/2015|18:26:49|488680|418.96|0001230010030310000010350418963|001003031000001035
REG|000167|03/07/2015|18:21:32|488681|418.96|0001230010420310000002170418966|001042031000000217
REG|000168|03/07/2015|18:27:41|488684|703.84|0001230010300310000014710703844|001030031000001471
REG|000169|03/07/2015|18:33:44|488705|418.96|0001230010030310000011100418964|001003031000001110
REG|000170|03/07/2015|18:35:00|488706|251.38|0001230010030310000011110251389|001003031000001111
REG|000171|03/07/2015|18:35:14|488707|418.96|0001230010050310000011010418968|001005031000001101
REG|000172|03/07/2015|18:35:24|488710|335.16|0001230010090310000012240335164|001009031000001224
REG|000173|03/07/2015|18:47:05|488730|251.38|0001230010520310000001310251385|001052031000000131
REG|000174|03/07/2015|18:48:23|488734|418.96|0001230010520310000001260418968|001052031000000126
REG|000175|03/07/2015|18:42:35|488737|404.02|0001230010050310000012150404024|001005031000001215
REG|000176|03/07/2015|16:44:50|488747|418.96|0001230010370310000004410418962|001037031000000441
REG|000177|03/07/2015|18:45:09|488750|404.02|0001230010050310000012110404023|001005031000001211
REG|000178|03/07/2015|18:46:47|488759|404.02|0001230010050310000012080404029|001005031000001208
REG|000179|03/07/2015|16:47:45|488765|418.96|0001230010370310000004420418960|001037031000000442
REG|000180|03/07/2015|18:48:10|488767|404.02|0001230010050310000012120404021|001005031000001212
REG|000181|03/07/2015|16:50:34|488777|418.96|0001230010370310000004390418966|001037031000000439
REG|000182|03/07/2015|18:52:45|488784|418.96|0001230010050310000013270418969|001005031000001327
REG|000183|03/07/2015|16:54:04|488788|418.96|0001230010370310000004400418964|001037031000000440
REG|000184|03/07/2015|18:55:08|488791|418.96|0001230010050310000013290418965|001005031000001329
REG|000185|03/07/2015|16:56:12|488793|418.96|0001230010370310000004440418966|001037031000000444
REG|000186|03/07/2015|19:04:13|488797|167.58|0001230010420310000000960167587|001042031000000096
REG|000187|03/07/2015|19:08:58|488814|418.96|0001230010500310000006240418966|001050031000000624
REG|000188|03/07/2015|19:07:17|488833|209.48|0001230010310310000011030209484|001031031000001103
REG|000189|03/07/2015|19:08:45|488843|418.96|0001230010030310000008550418965|001003031000000855
REG|000190|03/07/2015|19:13:28|488860|418.96|0001230010380310000005800418965|001038031000000580
REG|000191|03/07/2015|19:30:22|488886|335.16|0001230010310310000010000335162|001031031000001000
REG|000192|03/07/2015|19:36:13|488910|418.96|0001230010140310000017020418965|001014031000001702
REG|000193|03/07/2015|19:38:03|488919|418.96|0001230010140310000017060418966|001014031000001706
REG|000194|03/07/2015|19:39:03|488924|703.84|0001230010300310000013780703841|001030031000001378
REG|000195|03/07/2015|19:40:39|488929|436.34|0001230010300310000014550436349|001030031000001455
REG|000196|03/07/2015|19:42:00|488935|418.96|0001230010300310000013790418968|001030031000001379
REG|000197|03/07/2015|19:35:53|488936|255.86|0001230010420310000001570255861|001042031000000157
REG|000198|03/07/2015|19:39:43|488952|251.38|0001230010030310000011980251386|001003031000001198
REG|000199|03/07/2015|19:45:39|488966|341.14|0001230010030310000012350341146|001003031000001235
REG|000200|03/07/2015|19:46:05|488968|418.96|0001230010110310000008000418964|001011031000000800
REG|000201|03/07/2015|19:47:02|488972|426.42|0001230010030310000012360426424|001003031000001236
REG|000202|03/07/2015|19:50:02|488981|418.96|0001230010310310000012990418966|001031031000001299
REG|000203|03/07/2015|19:59:03|488989|418.96|0001230010210310000017960418962|001021031000001796
REG|000204|03/07/2015|20:00:35|488992|418.96|0001230010210310000017980418968|001021031000001798
REG|000205|03/07/2015|20:01:19|488994|418.96|0001230010210310000018560418964|001021031000001856
REG|000206|03/07/2015|20:01:49|488998|418.96|0001230010210310000017970418960|001021031000001797
REG|000207|03/07/2015|20:02:50|489004|335.16|0001230010430310000004230335162|001043031000000423
REG|000208|03/07/2015|20:02:58|489007|418.96|0001230010210310000018540418969|001021031000001854
REG|000209|03/07/2015|20:03:56|489012|418.96|0001230010110310000004930418968|001011031000000493
REG|000210|03/07/2015|19:57:45|489013|837.91|0001230010070310000004530837912|001007031000000453
REG|000211|03/07/2015|20:11:19|489040|167.58|0001230010430310000006000167584|001043031000000600
REG|000212|03/07/2015|20:12:47|489044|418.96|0001230010310310000014200418968|001031031000001420
REG|000213|03/07/2015|20:08:54|489047|418.96|0001230010120310000009010418968|001012031000000901
REG|000214|03/07/2015|20:15:51|489050|251.38|0001230010310310000014110251384|001031031000001411
REG|000215|03/07/2015|20:14:11|489061|83.08|0001230010090310000010700083084|001009031000001070
REG|000216|03/07/2015|20:05:23|489069|418.96|0001230010050310000013780418962|001005031000001378
REG|000217|03/07/2015|20:35:39|489097|418.96|0001230010480310000000330418964|001048031000000033
REG|000218|03/07/2015|20:36:39|489102|418.96|0001230010500310000004500418966|001050031000000450
REG|000219|03/07/2015|20:38:21|489107|418.96|0001230010480310000000310418968|001048031000000031
REG|000220|03/07/2015|20:39:09|489112|418.96|0001230010500310000004460418964|001050031000000446
REG|000221|03/07/2015|20:40:50|489120|418.96|0001230010480310000000320418966|001048031000000032
REG|000222|03/07/2015|20:39:01|489133|418.96|0001230010030310000009890418962|001003031000000989
REG|000223|03/07/2015|20:40:43|489136|418.96|0001230010030310000009850418960|001003031000000985
REG|000224|03/07/2015|20:48:22|489139|251.38|0001230010090310000011420251381|001009031000001142
REG|000225|03/07/2015|20:49:06|489142|418.96|0001230010110310000004940418966|001011031000000494
REG|000226|03/07/2015|20:43:23|489146|502.74|0001230010300310000014680502747|001030031000001468
REG|000227|03/07/2015|20:50:09|489148|418.96|0001230010140310000015350418969|001014031000001535
REG|000228|03/07/2015|20:51:01|489150|418.96|0001230010110310000004970418969|001011031000000497
REG|000229|03/07/2015|20:51:18|489152|251.38|0001230010090310000011430251389|001009031000001143
REG|000230|03/07/2015|20:45:00|489153|502.74|0001230010300310000014670502749|001030031000001467
REG|000231|03/07/2015|20:53:27|489158|251.38|0001230010110310000004960251388|001011031000000496
REG|000232|03/07/2015|20:48:30|489161|418.96|0001230010300310000014660418963|001030031000001466
REG|000233|03/07/2015|21:04:56|489197|251.38|0001230010030310000011130251385|001003031000001113
REG|000234|03/07/2015|21:17:46|489215|846.78|0001230010470110000000270846782|001047011000000027
REG|000235|03/07/2015|21:14:25|489220|418.96|0001230010060310000008180418966|001006031000000818
REG|000236|03/07/2015|21:17:04|489227|251.38|0001230010050310000013860251382|001005031000001386
REG|000237|03/07/2015|21:23:46|489229|426.42|0001230010470310000016230426420|001047031000001623
REG|000238|03/07/2015|21:24:49|489231|426.42|0001230010470310000016270426421|001047031000001627
REG|000239|03/07/2015|21:25:43|489232|426.42|0001230010470310000016260426423|001047031000001626
REG|000240|03/07/2015|21:26:44|489234|426.42|0001230010470310000016250426425|001047031000001625
REG|000241|03/07/2015|21:40:10|489271|586.54|0001230010470310000021270586547|001047031000002127
REG|000242|03/07/2015|21:49:21|489292|251.38|0001230010030310000009880251381|001003031000000988
REG|000243|03/07/2015|21:50:32|489295|418.96|0001230010030310000009860418968|001003031000000986
REG|000244|03/07/2015|23:12:11|489332|418.96|0001230010420310000001700418967|001042031000000170
REG|000245|03/07/2015|23:31:45|489336|418.96|0001230010060310000008760418964|001006031000000876