REG|000001|27/06/2015|07:38:11|463794|426.42|0001230010310110000000320426423|001031011000000032
REG|000002|27/06/2015|07:43:10|463807|418.96|0001230010110310000004560418965|001011031000000456
REG|000003|27/06/2015|07:45:33|463813|418.96|0001230010110310000004580418961|001011031000000458
REG|000004|27/06/2015|09:37:07|464095|959.68|0001230010470110000000460959684|001047011000000046
REG|000005|27/06/2015|09:41:23|464113|418.96|0001230010420310000003930418965|001042031000000393
REG|000006|27/06/2015|09:42:59|464122|418.96|0001230010420310000003950418960|001042031000000395
REG|000007|27/06/2015|09:51:33|464169|418.96|0001230010090310000010450418969|001009031000001045
REG|000008|27/06/2015|09:52:32|464173|251.38|0001230010090310000012260251382|001009031000001226
REG|000009|27/06/2015|09:58:45|464190|341.14|0001230010090310000008690341140|001009031000000869
REG|000010|27/06/2015|10:00:59|464201|341.14|0001230010090310000008720341144|001009031000000872
REG|000011|27/06/2015|10:01:03|464202|418.96|0001230010520310000002190418961|001052031000000219
REG|000012|27/06/2015|10:11:22|464217|418.96|0001230010110310000006630418966|001011031000000663
REG|000013|27/06/2015|10:13:24|464224|335.16|0001230010110310000006650335165|001011031000000665
REG|000014|27/06/2015|10:32:34|464291|167.58|0001230010060310000005880167588|001006031000000588
REG|000015|27/06/2015|10:35:56|464321|586.54|0001230010210310000024800586545|001021031000002480
REG|000016|27/06/2015|10:45:27|464339|335.16|0001230010490310000011060335169|001049031000001106
REG|000017|27/06/2015|10:41:19|464344|418.96|0001230010120310000008390418960|001012031000000839
REG|000018|27/06/2015|10:47:37|464347|83.08|0001230010490310000006690083080|001049031000000669
REG|000019|27/06/2015|10:45:32|464362|251.38|0001230010120310000008370251381|001012031000000837
REG|000020|27/06/2015|10:55:04|464396|418.96|0001230010120310000008400418968|001012031000000840
REG|000021|27/06/2015|11:05:30|464444|251.38|0001230010030310000008560251380|001003031000000856
REG|000022|27/06/2015|11:07:11|464449|418.96|0001230010090310000009970418962|001009031000000997
REG|000023|27/06/2015|11:08:39|464454|418.96|0001230010090310000009980418960|001009031000000998
REG|000024|27/06/2015|11:09:11|464455|418.96|0001230010050310000010710418963|001005031000001071
REG|000025|27/06/2015|11:16:21|464464|418.96|0001230010300310000016390418965|001030031000001639
REG|000026|27/06/2015|11:36:34|464541|335.16|0001230010040310000014640335167|001004031000001464
REG|000027|27/06/2015|11:37:06|464545|418.96|0001230010500310000005710418969|001050031000000571
REG|000028|27/06/2015|11:36:39|464567|586.54|0001230010070310000006010586547|001007031000000601
REG|000029|27/06/2015|11:38:09|464572|586.54|0001230010070310000006050586548|001007031000000605
REG|000030|27/06/2015|11:39:05|464577|586.54|0001230010070310000006080586542|001007031000000608
REG|000031|27/06/2015|11:52:35|464603|418.96|0001230010500310000004690418966|001050031000000469
REG|000032|27/06/2015|11:55:46|464621|418.96|0001230010500310000004650418964|001050031000000465
REG|000033|27/06/2015|11:56:59|464629|167.58|0001230010500310000004680167581|001050031000000468
REG|000034|27/06/2015|11:52:09|464631|418.96|0001230010310310000015340418966|001031031000001534
REG|000035|27/06/2015|11:58:08|464636|251.38|0001230010500310000004660251389|001050031000000466
REG|000036|27/06/2015|11:59:18|464641|251.38|0001230010500310000004670251387|001050031000000467
REG|000037|27/06/2015|12:00:36|464647|167.58|0001230010500310000004640167580|001050031000000464
REG|000038|27/06/2015|12:21:19|464733|426.42|0001230010210310000026790426426|001021031000002679
REG|000039|27/06/2015|12:22:55|464740|418.96|0001230010110310000004940418966|001011031000000494
REG|000040|27/06/2015|12:24:16|464746|255.86|0001230010210310000026780255868|001021031000002678
REG|000041|27/06/2015|12:19:25|464748|418.96|0001230010310310000015000418967|001031031000001500
REG|000042|27/06/2015|12:24:54|464751|418.96|0001230010110310000004930418968|001011031000000493
REG|000043|27/06/2015|12:27:00|464760|418.96|0001230010110310000004970418969|001011031000000497
REG|000044|27/06/2015|12:28:43|464765|418.96|0001230010420310000003970418966|001042031000000397
REG|000045|27/06/2015|12:30:04|464771|251.38|0001230010110310000004960251388|001011031000000496
REG|000046|27/06/2015|12:31:45|464799|426.42|0001230010090310000009870426420|001009031000000987
REG|000047|27/06/2015|12:37:57|464804|418.96|0001230010040310000012980418965|001004031000001298
REG|000048|27/06/2015|10:38:42|464831|255.86|0001230010370310000009340255863|001037031000000934
REG|000049|27/06/2015|12:56:06|464900|335.16|0001230010090310000010930335163|001009031000001093
REG|000050|27/06/2015|13:15:33|464957|418.96|0001230010500310000002810418965|001050031000000281
REG|000051|27/06/2015|13:15:37|464980|170.57|0001230010090310000008710170578|001009031000000871
REG|000052|27/06/2015|13:17:56|464990|418.96|0001230010310310000011040418968|001031031000001104
REG|000053|27/06/2015|13:19:08|464994|377.06|0001230010310310000011080377066|001031031000001108
REG|000054|27/06/2015|13:28:37|465010|418.96|0001230010500310000003290418962|001050031000000329
REG|000055|27/06/2015|13:30:27|465043|167.58|0001230010420310000000720167588|001042031000000072
REG|000056|27/06/2015|13:32:32|465052|167.58|0001230010420310000000710167580|001042031000000071
REG|000057|27/06/2015|13:40:05|465062|418.96|0001230010420310000003920418967|001042031000000392
REG|000058|27/06/2015|13:51:15|465103|418.96|0001230010420310000002530418961|001042031000000253
REG|000059|27/06/2015|14:05:37|465187|255.86|0001230010030310000007750255862|001003031000000775
REG|000060|27/06/2015|14:07:15|465196|418.96|0001230010030310000009520418960|001003031000000952
REG|000061|27/06/2015|14:10:04|465208|167.58|0001230010030310000008710167585|001003031000000871
REG|000062|27/06/2015|14:12:25|465217|418.96|0001230010070310000005990418960|001007031000000599
REG|000063|27/06/2015|14:13:42|465227|418.96|0001230010070310000005990418960|001007031000000599
REG|000064|27/06/2015|14:19:54|465232|167.58|0001230010500310000003560167588|001050031000000356
REG|000065|27/06/2015|14:37:55|465319|418.96|0001230010420310000002490418969|001042031000000249
REG|000066|27/06/2015|14:39:22|465327|418.96|0001230010420310000002480418961|001042031000000248
REG|000067|27/06/2015|14:40:35|465332|418.96|0001230010420310000002500418967|001042031000000250
REG|000068|27/06/2015|14:41:43|465337|418.96|0001230010420310000002510418965|001042031000000251
REG|000069|27/06/2015|14:55:50|465406|418.96|0001230010500310000004700418964|001050031000000470
REG|000070|27/06/2015|15:17:20|465505|418.96|0001230010110310000008010418962|001011031000000801
REG|000071|27/06/2015|15:23:35|465527|418.96|0001230010090310000011810418962|001009031000001181
REG|000072|27/06/2015|15:24:58|465531|418.96|0001230010050310000011580418968|001005031000001158
REG|000073|27/06/2015|15:25:36|465533|251.38|0001230010090310000011840251383|001009031000001184
REG|000074|27/06/2015|15:27:50|465544|418.96|0001230010070310000004470418962|001007031000000447
REG|000075|27/06/2015|15:28:08|465546|251.38|0001230010090310000011800251381|001009031000001180
REG|000076|27/06/2015|15:28:38|465547|418.96|0001230010070310000004470418962|001007031000000447
REG|000077|27/06/2015|15:29:12|465552|418.96|0001230010070310000004470418962|001007031000000447
REG|000078|27/06/2015|15:29:49|465555|418.96|0001230010070310000004470418962|001007031000000447
REG|000079|27/06/2015|15:30:28|465557|251.38|0001230010090310000011820251387|001009031000001182
REG|000080|27/06/2015|15:33:44|465571|418.96|0001230010090310000011850418963|001009031000001185
REG|000081|27/06/2015|15:43:29|465590|418.96|0001230010310310000011510418969|001031031000001151
REG|000082|27/06/2015|15:44:31|465597|418.96|0001230010310310000011540418963|001031031000001154
REG|000083|27/06/2015|15:57:09|465662|586.54|0001230010310310000013420586547|001031031000001342
REG|000084|27/06/2015|16:04:48|465674|418.96|0001230010430310000002650418963|001043031000000265
REG|000085|27/06/2015|16:11:49|465726|418.96|0001230010420310000003550418964|001042031000000355
REG|000086|27/06/2015|16:26:57|465772|335.16|0001230010130310000021060335164|001013031000002106
REG|000087|27/06/2015|16:21:57|465775|418.96|0001230010420310000001150418962|001042031000000115
REG|000088|27/06/2015|16:49:23|465851|335.16|0001230010090310000011790335160|001009031000001179
REG|000089|27/06/2015|16:51:10|465862|251.38|0001230010090310000011830251385|001009031000001183
REG|000090|27/06/2015|16:00:44|465937|255.86|0001230010380310000004760255863|001038031000000476
REG|000091|27/06/2015|17:22:53|466001|200.00|0001230010500310000000470200004|001050031000000047
REG|000092|27/06/2015|17:27:04|466016|200.00|0001230010500310000000460200006|001050031000000046
REG|000093|27/06/2015|17:39:43|466070|418.96|0001230010210310000015170418962|001021031000001517
REG|000094|27/06/2015|17:39:53|466072|255.86|0001230010420310000001570255861|001042031000000157
REG|000095|27/06/2015|17:40:11|466075|418.96|0001230010140310000015100418962|001014031000001510
REG|000096|27/06/2015|17:40:20|466076|418.96|0001230010210310000017480418963|001021031000001748
REG|000097|27/06/2015|17:42:24|466082|341.14|0001230010420310000001580341149|001042031000000158
REG|000098|27/06/2015|17:44:32|466090|255.86|0001230010420310000001560255863|001042031000000156
REG|000099|27/06/2015|17:46:36|466097|255.86|0001230010420310000001550255865|001042031000000155
REG|000100|27/06/2015|17:41:16|466098|418.96|0001230010310310000011140418967|001031031000001114
REG|000101|27/06/2015|17:50:25|466113|418.96|0001230010420310000000790418960|001042031000000079
REG|000102|27/06/2015|17:46:39|466121|418.96|0001230010110310000008750418966|001011031000000875
REG|000103|27/06/2015|17:52:08|466122|335.16|0001230010420310000000770335168|001042031000000077
REG|000104|27/06/2015|16:00:06|466165|502.74|0001230010380310000005970502747|001038031000000597
REG|000105|27/06/2015|18:29:35|466286|418.96|0001230010020310000009100418960|001002031000000910
REG|000106|27/06/2015|18:30:58|466293|418.96|0001230010020310000009100418960|001002031000000910
REG|000107|27/06/2015|19:00:27|466399|1131.25|0001230010070310000005811131255|001007031000000581
REG|000108|27/06/2015|19:01:33|466404|242.42|0001230010070310000005770242424|001007031000000577
REG|000109|27/06/2015|19:08:25|466411|703.84|0001230010310310000013730703840|001031031000001373
REG|000110|27/06/2015|19:12:40|466440|404.02|0001230010310310000009030404022|001031031000000903
REG|000111|27/06/2015|19:49:54|466583|418.96|0001230010310310000008930418967|001031031000000893
REG|000112|27/06/2015|19:03:17|466633|418.96|0001230010050310000012370418960|001005031000001237
REG|000113|27/06/2015|19:05:29|466645|418.96|0001230010050310000012340418967|001005031000001234
REG|000114|27/06/2015|19:19:12|466696|418.96|0001230010050310000012380418968|001005031000001238
REG|000115|27/06/2015|20:36:38|466742|418.96|0001230010110310000004340418962|001011031000000434
REG|000116|27/06/2015|20:43:39|466770|418.96|0001230010110310000004330418964|001011031000000433
REG|000117|27/06/2015|20:45:54|466777|418.96|0001230010110310000004330418964|001011031000000433
REG|000118|27/06/2015|20:48:15|466785|418.96|0001230010110310000004360418967|001011031000000436
REG|000119|27/06/2015|20:49:04|466791|586.54|0001230010210310000024810586543|001021031000002481
REG|000120|27/06/2015|20:50:16|466797|418.96|0001230010110310000004360418967|001011031000000436
REG|000121|27/06/2015|20:52:29|466805|418.96|0001230010110310000004320418966|001011031000000432
REG|000122|27/06/2015|20:54:15|466810|418.96|0001230010110310000004320418966|001011031000000432
REG|000123|27/06/2015|20:56:48|466816|418.96|0001230010500310000002820418963|001050031000000282
REG|000124|27/06/2015|18:58:41|466852|251.38|0001230010380310000005380251380|001038031000000538
REG|000125|27/06/2015|19:03:11|466866|251.38|0001230010380310000005380251380|001038031000000538
REG|000126|27/06/2015|21:35:53|466962|167.58|0001230010050310000010130167588|001005031000001013
REG|000127|27/06/2015|21:41:39|466963|418.96|0001230010500310000001120418962|001050031000000112