REG|000001|06/07/2015|07:18:37|491627|251.38|0001230010140310000011660251380|001014031000001166
REG|000002|06/07/2015|07:59:59|491633|167.58|0001230010420310000004400167587|001042031000000440
REG|000003|06/07/2015|08:22:54|491647|251.38|0001230010520310000003310251381|001052031000000331
REG|000004|06/07/2015|08:21:23|491648|418.96|0001230010110310000007990418968|001011031000000799
REG|000005|06/07/2015|08:29:07|491651|793.00|0001230010470110000000050793006|001047011000000005
REG|000006|06/07/2015|08:30:04|491654|251.38|0001230010210310000026160251388|001021031000002616
REG|000007|06/07/2015|08:34:31|491661|251.38|0001230010470310000021460251381|001047031000002146
REG|000008|06/07/2015|08:29:29|491663|167.58|0001230010520310000003280167583|001052031000000328
REG|000009|06/07/2015|08:37:00|491664|335.16|0001230010470310000021910335164|001047031000002191
REG|000010|06/07/2015|08:54:03|491681|418.96|0001230010500310000004860418960|001050031000000486
REG|000011|06/07/2015|08:55:09|491686|341.14|0001230010090310000010170341145|001009031000001017
REG|000012|06/07/2015|08:56:08|491692|418.96|0001230010120310000009180418962|001012031000000918
REG|000013|06/07/2015|08:57:49|491698|323.21|0001230010110310000008620323214|001011031000000862
REG|000014|06/07/2015|09:05:41|491702|586.54|0001230010210310000027660586547|001021031000002766
REG|000015|06/07/2015|08:59:55|491704|418.96|0001230010120310000009150418968|001012031000000915
REG|000016|06/07/2015|09:11:52|491718|418.96|0001230010420310000004450418963|001042031000000445
REG|000017|06/07/2015|09:06:36|491719|167.58|0001230010030310000012890167589|001003031000001289
REG|000018|06/07/2015|09:19:41|491728|335.16|0001230010130310000017170335169|001013031000001717
REG|000019|06/07/2015|09:16:15|491735|251.38|0001230010030310000008560251380|001003031000000856
REG|000020|06/07/2015|09:25:06|491741|418.96|0001230010210310000027650418966|001021031000002765
REG|000021|06/07/2015|09:26:21|491746|586.54|0001230010210310000027690586541|001021031000002769
REG|000022|06/07/2015|09:37:09|491759|335.16|0001230010210310000026250335166|001021031000002625
REG|000023|06/07/2015|09:40:44|491766|167.58|0001230010420310000004430167581|001042031000000443
REG|000024|06/07/2015|09:35:56|491769|251.38|0001230010090310000011520251380|001009031000001152
REG|000025|06/07/2015|09:43:38|491771|200.00|0001230010500310000000520200004|001050031000000052
REG|000026|06/07/2015|09:39:29|491773|418.96|0001230010070310000004010418969|001007031000000401
REG|000027|06/07/2015|09:45:59|491774|200.00|0001230010500310000000510200006|001050031000000051
REG|000028|06/07/2015|09:42:15|491779|418.96|0001230010070310000005170418962|001007031000000517
REG|000029|06/07/2015|09:43:34|491781|418.96|0001230010070310000005200418966|001007031000000520
REG|000030|06/07/2015|09:52:42|491784|335.16|0001230010210310000027640335163|001021031000002764
REG|000031|06/07/2015|09:54:04|491786|418.96|0001230010210310000026880418960|001021031000002688
REG|000032|06/07/2015|09:52:16|491790|251.38|0001230010310310000014170251381|001031031000001417
REG|000033|06/07/2015|09:59:25|491792|418.96|0001230010210310000026210418961|001021031000002621
REG|000034|06/07/2015|09:59:51|491793|167.58|0001230010030310000008960167582|001003031000000896
REG|000035|06/07/2015|09:55:36|491799|418.96|0001230010110310000007380418966|001011031000000738
REG|000036|06/07/2015|10:04:34|491808|335.16|0001230010120310000008410335160|001012031000000841
REG|000037|06/07/2015|10:13:50|491813|418.96|0001230010420310000003580418968|001042031000000358
REG|000038|06/07/2015|10:16:21|491816|418.96|0001230010420310000003580418968|001042031000000358
REG|000039|06/07/2015|10:17:40|491820|418.96|0001230010310310000011450418961|001031031000001145
REG|000040|06/07/2015|10:12:19|491821|418.96|0001230010120310000009160418966|001012031000000916
REG|000041|06/07/2015|10:14:38|491824|418.96|0001230010060310000003160418961|001006031000000316
REG|000042|06/07/2015|10:15:19|491826|418.96|0001230010050310000013380418966|001005031000001338
REG|000043|06/07/2015|10:17:08|491828|167.58|0001230010050310000013360167583|001005031000001336
REG|000044|06/07/2015|10:24:08|491829|418.96|0001230010420310000004410418962|001042031000000441
REG|000045|06/07/2015|10:27:51|491836|418.96|0001230010210310000018690418967|001021031000001869
REG|000046|06/07/2015|10:30:06|491841|251.38|0001230010210310000018680251386|001021031000001868
REG|000047|06/07/2015|10:25:11|491844|418.96|0001230010420310000003760418960|001042031000000376
REG|000048|06/07/2015|10:27:06|491847|418.96|0001230010420310000003740418965|001042031000000374
REG|000049|06/07/2015|10:28:59|491853|418.96|0001230010420310000003770418968|001042031000000377
REG|000050|06/07/2015|10:33:19|491862|418.96|0001230010110310000005560418962|001011031000000556
REG|000051|06/07/2015|10:42:49|491870|418.96|0001230010210310000027670418962|001021031000002767
REG|000052|06/07/2015|10:47:18|491874|418.96|0001230010210310000026200418963|001021031000002620
REG|000053|06/07/2015|10:48:31|491876|418.96|0001230010210310000026170418969|001021031000002617
REG|000054|06/07/2015|10:50:15|491878|251.38|0001230010470310000021950251388|001047031000002195
REG|000055|06/07/2015|10:50:59|491882|167.58|0001230010130310000024070167585|001013031000002407
REG|000056|06/07/2015|10:45:18|491883|418.96|0001230010070310000005580418966|001007031000000558
REG|000057|06/07/2015|10:52:30|491884|251.38|0001230010130310000024080251387|001013031000002408
REG|000058|06/07/2015|10:46:47|491889|167.58|0001230010310310000014720167582|001031031000001472
REG|000059|06/07/2015|10:53:45|491894|167.58|0001230010130310000024090167581|001013031000002409
REG|000060|06/07/2015|10:54:58|491897|251.38|0001230010130310000024100251383|001013031000002410
REG|000061|06/07/2015|10:49:45|491902|418.96|0001230010050310000013320418969|001005031000001332
REG|000062|06/07/2015|10:56:08|491904|418.96|0001230010120310000008780418968|001012031000000878
REG|000063|06/07/2015|10:49:57|491905|418.96|0001230010520310000004180418969|001052031000000418
REG|000064|06/07/2015|10:56:30|491907|167.58|0001230010130310000024110167587|001013031000002411
REG|000065|06/07/2015|10:57:31|491914|251.38|0001230010130310000024120251389|001013031000002412
REG|000066|06/07/2015|10:57:52|491916|418.96|0001230010210310000026270418968|001021031000002627
REG|000067|06/07/2015|10:52:26|491920|418.96|0001230010520310000004140418968|001052031000000414
REG|000068|06/07/2015|11:00:17|491921|426.42|0001230010210310000026960426420|001021031000002696
REG|000069|06/07/2015|11:07:07|491936|335.16|0001230010520310000003300335160|001052031000000330
REG|000070|06/07/2015|11:08:08|491937|335.16|0001230010520310000003270335166|001052031000000327
REG|000071|06/07/2015|11:08:25|491938|418.96|0001230010210310000026830418961|001021031000002683
REG|000072|06/07/2015|11:09:58|491941|335.16|0001230010520310000003260335168|001052031000000326
REG|000073|06/07/2015|11:16:36|491957|418.96|0001230010210310000023480418961|001021031000002348
REG|000074|06/07/2015|11:17:57|491961|418.96|0001230010210310000026220418969|001021031000002622
REG|000075|06/07/2015|11:20:02|491966|335.16|0001230010210310000026240335169|001021031000002624
REG|000076|06/07/2015|11:21:02|491969|335.16|0001230010210310000026230335161|001021031000002623
REG|000077|06/07/2015|11:30:40|491991|418.96|0001230010520310000003190418969|001052031000000319
REG|000078|06/07/2015|11:42:47|492018|418.96|0001230010210310000026190418965|001021031000002619
REG|000079|06/07/2015|11:41:09|492028|418.96|0001230010050310000013370418968|001005031000001337
REG|000080|06/07/2015|11:43:22|492029|418.96|0001230010050310000013340418965|001005031000001334
REG|000081|06/07/2015|11:49:55|492030|682.27|0001230010110310000008860682279|001011031000000886
REG|000082|06/07/2015|11:52:34|492034|418.96|0001230010030310000010770418965|001003031000001077
REG|000083|06/07/2015|11:56:22|492043|418.96|0001230010210310000025630418965|001021031000002563
REG|000084|06/07/2015|11:50:12|492044|418.96|0001230010520310000003180418961|001052031000000318
REG|000085|06/07/2015|11:52:52|492047|418.96|0001230010520310000003140418960|001052031000000314
REG|000086|06/07/2015|11:52:59|492048|167.58|0001230010090310000011630167583|001009031000001163
REG|000087|06/07/2015|11:55:42|492054|418.96|0001230010520310000003160418965|001052031000000316
REG|000088|06/07/2015|11:56:24|492057|418.96|0001230010070310000005340418967|001007031000000534
REG|000089|06/07/2015|12:08:35|492065|418.96|0001230010210310000026260418960|001021031000002626
REG|000090|06/07/2015|12:22:18|492113|418.96|0001230010310310000015130418960|001031031000001513
REG|000091|06/07/2015|12:29:14|492115|653.57|0001230010210310000019710653575|001021031000001971
REG|000092|06/07/2015|12:32:03|492123|418.96|0001230010500310000006220418960|001050031000000622
REG|000093|06/07/2015|12:27:13|492127|418.96|0001230010050310000013330418967|001005031000001333
REG|000094|06/07/2015|12:33:28|492128|418.96|0001230010500310000006210418962|001050031000000621
REG|000095|06/07/2015|12:29:15|492135|418.96|0001230010050310000013350418962|001005031000001335
REG|000096|06/07/2015|12:39:51|492168|418.96|0001230010090310000012440418968|001009031000001244
REG|000097|06/07/2015|12:41:03|492171|251.38|0001230010090310000012450251382|001009031000001245
REG|000098|06/07/2015|12:47:48|492174|418.96|0001230010020310000011650418960|001002031000001165
REG|000099|06/07/2015|12:41:43|492175|418.96|0001230010420310000004360418962|001042031000000436
REG|000100|06/07/2015|12:48:37|492192|502.74|0001230010070310000004390502747|001007031000000439
REG|000101|06/07/2015|13:00:49|492214|251.38|0001230010210310000025010251382|001021031000002501
REG|000102|06/07/2015|12:55:34|492217|167.58|0001230010090310000011650167588|001009031000001165
REG|000103|06/07/2015|13:02:57|492240|418.96|0001230010070310000005510418961|001007031000000551
REG|000104|06/07/2015|13:12:31|492248|418.96|0001230010470310000021930418966|001047031000002193
REG|000105|06/07/2015|13:07:15|492250|418.96|0001230010050310000013920418963|001005031000001392
REG|000106|06/07/2015|13:17:48|492266|418.96|0001230010500310000006460418969|001050031000000646
REG|000107|06/07/2015|13:15:46|492276|418.96|0001230010520310000003130418962|001052031000000313
REG|000108|06/07/2015|13:17:29|492282|418.96|0001230010520310000003170418963|001052031000000317
REG|000109|06/07/2015|13:18:54|492285|418.96|0001230010030310000012950418963|001003031000001295
REG|000110|06/07/2015|13:19:04|492286|418.96|0001230010520310000003150418967|001052031000000315
REG|000111|06/07/2015|13:26:00|492289|335.16|0001230010500310000004010335163|001050031000000401
REG|000112|06/07/2015|13:32:10|492305|418.96|0001230010140310000015760418963|001014031000001576
REG|000113|06/07/2015|13:35:12|492312|418.96|0001230010500310000005140418969|001050031000000514
REG|000114|06/07/2015|13:36:17|492315|167.58|0001230010040310000015280167588|001004031000001528
REG|000115|06/07/2015|13:30:48|492316|251.38|0001230010020310000011900251385|001002031000001190
REG|000116|06/07/2015|13:38:54|492324|170.57|0001230010040310000016460170574|001004031000001646
REG|000117|06/07/2015|13:56:52|492364|170.57|0001230010090310000008680170574|001009031000000868
REG|000118|06/07/2015|13:52:06|492368|418.96|0001230010050310000013890418969|001005031000001389
REG|000119|06/07/2015|11:52:45|492370|418.96|0001230010380310000003150418966|001038031000000315
REG|000120|06/07/2015|13:54:19|492376|418.96|0001230010050310000013880418961|001005031000001388
REG|000121|06/07/2015|14:07:13|492396|418.96|0001230010140310000013450418963|001014031000001345
REG|000122|06/07/2015|14:01:14|492397|586.54|0001230010310310000014590586549|001031031000001459
REG|000123|06/07/2015|14:02:57|492404|418.96|0001230010030310000012930418968|001003031000001293
REG|000124|06/07/2015|14:10:08|492406|418.96|0001230010140310000013430418968|001014031000001343
REG|000125|06/07/2015|14:11:20|492409|418.96|0001230010140310000013440418966|001014031000001344
REG|000126|06/07/2015|12:06:53|492415|418.96|0001230010370310000009830418963|001037031000000983
REG|000127|06/07/2015|14:13:42|492417|586.54|0001230010470310000016620586544|001047031000001662
REG|000128|06/07/2015|14:08:40|492421|418.96|0001230010120310000008120418967|001012031000000812
REG|000129|06/07/2015|14:10:33|492422|418.96|0001230010120310000008090418963|001012031000000809
REG|000130|06/07/2015|14:21:35|492432|418.96|0001230010110310000008890418967|001011031000000889
REG|000131|06/07/2015|13:18:16|492441|418.96|0001230010050310000013100418965|001005031000001310
REG|000132|06/07/2015|14:27:20|492448|586.54|0001230010210310000026130586541|001021031000002613
REG|000133|06/07/2015|14:28:45|492450|418.96|0001230010210310000026120418960|001021031000002612
REG|000134|06/07/2015|14:29:10|492452|251.38|0001230010420310000003200251385|001042031000000320
REG|000135|06/07/2015|14:31:04|492453|251.38|0001230010420310000003190251387|001042031000000319
REG|000136|06/07/2015|14:31:12|492455|418.96|0001230010210310000026110418962|001021031000002611
REG|000137|06/07/2015|14:36:38|492465|251.38|0001230010420310000003210251383|001042031000000321
REG|000138|06/07/2015|14:41:52|492486|793.00|0001230010470110000000110793004|001047011000000011
REG|000139|06/07/2015|14:52:23|492505|335.16|0001230010300310000013880335163|001030031000001388
REG|000140|06/07/2015|14:54:06|492510|426.42|0001230010090310000010210426427|001009031000001021
REG|000141|06/07/2015|14:52:40|492520|418.96|0001230010050310000012410418962|001005031000001241
REG|000142|06/07/2015|14:54:23|492527|418.96|0001230010050310000012420418960|001005031000001242
REG|000143|06/07/2015|14:55:48|492530|418.96|0001230010050310000012440418966|001005031000001244
REG|000144|06/07/2015|15:07:07|492544|251.38|0001230010420310000004380251385|001042031000000438
REG|000145|06/07/2015|15:14:33|492560|418.96|0001230010500310000003480418962|001050031000000348
REG|000146|06/07/2015|15:15:30|492564|418.96|0001230010500310000003500418968|001050031000000350
REG|000147|06/07/2015|15:16:19|492566|418.96|0001230010500310000003470418964|001050031000000347
REG|000148|06/07/2015|15:10:27|492567|167.58|0001230010050310000011470167584|001005031000001147
REG|000149|06/07/2015|15:11:51|492573|167.58|0001230010050310000011470167584|001005031000001147
REG|000150|06/07/2015|15:16:26|492586|167.58|0001230010310310000014700167586|001031031000001470
REG|000151|06/07/2015|15:17:45|492595|167.58|0001230010310310000014740167588|001031031000001474
REG|000152|06/07/2015|15:18:42|492600|251.38|0001230010030310000013000251388|001003031000001300
REG|000153|06/07/2015|15:26:08|492602|426.42|0001230010090310000010090426422|001009031000001009
REG|000154|06/07/2015|15:22:18|492607|209.48|0001230010030310000012380209487|001003031000001238
REG|000155|06/07/2015|15:28:42|492608|251.38|0001230010470310000021960251386|001047031000002196
REG|000156|06/07/2015|15:38:07|492636|167.58|0001230010430310000006600167588|001043031000000660
REG|000157|06/07/2015|15:32:21|492637|293.26|0001230010030310000012390293265|001003031000001239
REG|000158|06/07/2015|15:33:48|492640|293.26|0001230010030310000012430293267|001003031000001243
REG|000159|06/07/2015|15:35:26|492648|293.26|0001230010030310000012400293263|001003031000001240
REG|000160|06/07/2015|15:42:22|492651|251.38|0001230010430310000006590251384|001043031000000659
REG|000161|06/07/2015|15:36:52|492654|293.26|0001230010030310000012420293269|001003031000001242
REG|000162|06/07/2015|15:45:01|492661|426.42|0001230010090310000010200426429|001009031000001020
REG|000163|06/07/2015|15:45:42|492676|418.96|0001230010070310000006090418967|001007031000000609
REG|000164|06/07/2015|15:47:12|492679|418.96|0001230010050310000013870418963|001005031000001387
REG|000165|06/07/2015|15:49:04|492687|418.96|0001230010120310000008140418963|001012031000000814
REG|000166|06/07/2015|15:49:19|492689|418.96|0001230010050310000013910418965|001005031000001391
REG|000167|06/07/2015|15:52:42|492704|335.16|0001230010020310000010960335161|001002031000001096
REG|000168|06/07/2015|13:53:00|492705|502.74|0001230010380310000006190502749|001038031000000619
REG|000169|06/07/2015|15:54:33|492708|418.96|0001230010020310000010970418965|001002031000001097
REG|000170|06/07/2015|15:55:50|492712|335.16|0001230010020310000010980335167|001002031000001098
REG|000171|06/07/2015|16:02:04|492713|418.96|0001230010210310000026180418967|001021031000002618
REG|000172|06/07/2015|16:02:44|492715|335.16|0001230010470310000021920335162|001047031000002192
REG|000173|06/07/2015|14:57:10|492718|418.96|0001230010050310000013620418966|001005031000001362
REG|000174|06/07/2015|15:57:14|492719|335.16|0001230010020310000010960335161|001002031000001096
REG|000175|06/07/2015|15:54:46|492720|251.38|0001230010090310000011610251381|001009031000001161
REG|000176|06/07/2015|15:58:47|492724|418.96|0001230010050310000013120418961|001005031000001312
REG|000177|06/07/2015|15:56:27|492726|335.16|0001230010090310000011640335162|001009031000001164
REG|000178|06/07/2015|16:00:44|492728|418.96|0001230010050310000013090418967|001005031000001309
REG|000179|06/07/2015|16:07:37|492731|586.54|0001230010210310000026150586546|001021031000002615
REG|000180|06/07/2015|16:02:17|492733|418.96|0001230010310310000012660418965|001031031000001266
REG|000181|06/07/2015|16:03:31|492735|418.96|0001230010310310000012680418961|001031031000001268
REG|000182|06/07/2015|16:17:25|492759|335.16|0001230010470310000021410335169|001047031000002141
REG|000183|06/07/2015|16:17:51|492760|418.96|0001230010310310000010150418966|001031031000001015
REG|000184|06/07/2015|16:31:03|492788|251.38|0001230010030310000010750251386|001003031000001075
REG|000185|06/07/2015|14:27:01|492793|418.96|0001230010380310000006050418960|001038031000000605
REG|000186|06/07/2015|16:35:52|492796|341.14|0001230010030310000011170341146|001003031000001117
REG|000187|06/07/2015|16:32:21|492812|251.38|0001230010310310000014730251384|001031031000001473
REG|000188|06/07/2015|16:41:36|492827|846.78|0001230010470110000001400846783|001047011000000140
REG|000189|06/07/2015|16:35:30|492828|251.38|0001230010090310000011620251389|001009031000001162
REG|000190|06/07/2015|16:36:13|492830|335.16|0001230010090310000012430335164|001009031000001243
REG|000191|06/07/2015|16:36:30|492831|418.96|0001230010050310000013600418960|001005031000001360
REG|000192|06/07/2015|16:42:08|492841|418.96|0001230010310310000014710418961|001031031000001471
REG|000193|06/07/2015|15:42:11|492842|418.96|0001230010050310000013570418966|001005031000001357
REG|000194|06/07/2015|14:42:45|492845|426.42|0001230010380310000004780426429|001038031000000478
REG|000195|06/07/2015|15:43:20|492847|418.96|0001230010050310000013590418962|001005031000001359
REG|000196|06/07/2015|14:44:23|492850|85.29|0001230010380310000004790085298|001038031000000479
REG|000197|06/07/2015|14:46:05|492854|85.29|0001230010380310000004770085292|001038031000000477
REG|000198|06/07/2015|16:46:24|492856|167.58|0001230010310310000009970167589|001031031000000997
REG|000199|06/07/2015|16:52:13|492869|418.96|0001230010050310000010380418962|001005031000001038
REG|000200|06/07/2015|16:59:08|492882|404.02|0001230010070310000006370404026|001007031000000637
REG|000201|06/07/2015|17:05:24|492883|418.96|0001230010210310000019680418967|001021031000001968
REG|000202|06/07/2015|17:07:16|492908|418.96|0001230010520310000002210418967|001052031000000221
REG|000203|06/07/2015|17:13:48|492910|418.96|0001230010300310000017070418960|001030031000001707
REG|000204|06/07/2015|17:09:07|492912|418.96|0001230010520310000002230418963|001052031000000223
REG|000205|06/07/2015|17:10:35|492915|418.96|0001230010520310000002260418966|001052031000000226
REG|000206|06/07/2015|17:08:44|492922|170.57|0001230010110310000008830170579|001011031000000883
REG|000207|06/07/2015|17:12:18|492924|418.96|0001230010520310000002240418961|001052031000000224
REG|000208|06/07/2015|17:13:01|492927|418.96|0001230010050310000012260418963|001005031000001226
REG|000209|06/07/2015|17:13:51|492932|418.96|0001230010520310000002220418965|001052031000000222
REG|000210|06/07/2015|17:15:23|492936|418.96|0001230010520310000002250418968|001052031000000225
REG|000211|06/07/2015|17:18:56|492949|251.38|0001230010300310000017040251384|001030031000001704
REG|000212|06/07/2015|17:20:28|492953|167.58|0001230010300310000017020167584|001030031000001702
REG|000213|06/07/2015|17:27:36|492959|426.42|0001230010090310000010190426421|001009031000001019
REG|000214|06/07/2015|17:22:07|492962|620.04|0001230010310310000015150620040|001031031000001515
REG|000215|06/07/2015|17:22:35|492965|167.58|0001230010030310000011660167589|001003031000001166
REG|000216|06/07/2015|17:24:43|492967|586.54|0001230010310310000015640586546|001031031000001564
REG|000217|06/07/2015|16:19:03|492968|418.96|0001230010050310000012380418968|001005031000001238
REG|000218|06/07/2015|17:32:33|492988|418.96|0001230010520310000002150418969|001052031000000215
REG|000219|06/07/2015|17:39:55|492991|251.38|0001230010300310000016330251385|001030031000001633
REG|000220|06/07/2015|17:34:41|492997|418.96|0001230010520310000002190418961|001052031000000219
REG|000221|06/07/2015|17:38:20|493007|418.96|0001230010310310000015110418964|001031031000001511
REG|000222|06/07/2015|17:39:35|493012|418.96|0001230010310310000015170418961|001031031000001517
REG|000223|06/07/2015|15:40:17|493014|418.96|0001230010380310000003200418966|001038031000000320
REG|000224|06/07/2015|17:46:31|493015|335.16|0001230010020310000011320335164|001002031000001132
REG|000225|06/07/2015|17:47:18|493039|335.16|0001230010110310000008210335164|001011031000000821
REG|000226|06/07/2015|17:49:31|493047|418.96|0001230010110310000008390418962|001011031000000839
REG|000227|06/07/2015|17:56:04|493049|335.16|0001230010420310000004390335160|001042031000000439
REG|000228|06/07/2015|17:56:27|493052|251.38|0001230010500310000006320251386|001050031000000632
REG|000229|06/07/2015|17:50:46|493055|418.96|0001230010110310000008370418966|001011031000000837
REG|000230|06/07/2015|17:58:13|493061|251.38|0001230010500310000006300251380|001050031000000630
REG|000231|06/07/2015|17:54:00|493065|418.96|0001230010310310000015160418963|001031031000001516
REG|000232|06/07/2015|18:01:47|493067|167.58|0001230010500310000003560167588|001050031000000356
REG|000233|06/07/2015|17:56:10|493068|418.96|0001230010050310000012330418969|001005031000001233
REG|000234|06/07/2015|18:06:04|493075|426.42|0001230010500310000002900426423|001050031000000290
REG|000235|06/07/2015|18:00:43|493078|404.02|0001230010070310000006240404024|001007031000000624
REG|000236|06/07/2015|18:07:42|493081|255.86|0001230010500310000002870255869|001050031000000287
REG|000237|06/07/2015|18:02:23|493084|404.02|0001230010070310000006270404027|001007031000000627
REG|000238|06/07/2015|18:09:34|493086|426.42|0001230010500310000002880426427|001050031000000288
REG|000239|06/07/2015|18:11:26|493092|255.86|0001230010500310000002860255861|001050031000000286
REG|000240|06/07/2015|18:07:45|493098|418.96|0001230010420310000004370418960|001042031000000437
REG|000241|06/07/2015|18:14:54|493106|418.96|0001230010430310000002810418960|001043031000000281
REG|000242|06/07/2015|18:12:37|493121|418.96|0001230010420310000004320418961|001042031000000432
REG|000243|06/07/2015|18:15:40|493126|418.96|0001230010420310000004340418967|001042031000000434
REG|000244|06/07/2015|16:17:47|493133|418.96|0001230010370310000009790418961|001037031000000979
REG|000245|06/07/2015|18:18:16|493136|251.38|0001230010120310000008100251388|001012031000000810
REG|000246|06/07/2015|18:18:35|493138|418.96|0001230010420310000004350418964|001042031000000435
REG|000247|06/07/2015|18:25:11|493142|846.78|0001230010210110000000130846787|001021011000000013
REG|000248|06/07/2015|16:19:14|493143|418.96|0001230010370310000009790418961|001037031000000979
REG|000249|06/07/2015|18:19:35|493145|418.96|0001230010120310000008110418969|001012031000000811
REG|000250|06/07/2015|18:22:26|493154|418.96|0001230010420310000004330418969|001042031000000433
REG|000251|06/07/2015|18:22:40|493158|251.38|0001230010060310000006360251389|001006031000000636
REG|000252|06/07/2015|18:24:14|493163|251.38|0001230010060310000006340251384|001006031000000634
REG|000253|06/07/2015|18:38:24|493176|418.96|0001230010210310000027070418968|001021031000002707
REG|000254|06/07/2015|18:40:00|493178|418.96|0001230010210310000027090418964|001021031000002709
REG|000255|06/07/2015|16:43:09|493196|255.86|0001230010370310000009350255860|001037031000000935
REG|000256|06/07/2015|16:43:55|493198|418.96|0001230010380310000003190418968|001038031000000319
REG|000257|06/07/2015|18:53:38|493206|418.96|0001230010470310000021940418964|001047031000002194
REG|000258|06/07/2015|18:56:22|493220|418.96|0001230010020310000009060418968|001002031000000906
REG|000259|06/07/2015|18:57:46|493226|418.96|0001230010020310000009040418963|001002031000000904
REG|000260|06/07/2015|18:53:30|493234|586.54|0001230010050310000012250586548|001005031000001225
REG|000261|06/07/2015|19:02:12|493249|418.96|0001230010030310000011670418964|001003031000001167
REG|000262|06/07/2015|19:03:59|493260|418.96|0001230010070310000004400418967|001007031000000440
REG|000263|06/07/2015|19:20:01|493285|418.96|0001230010500310000005740418963|001050031000000574
REG|000264|06/07/2015|19:22:43|493293|418.96|0001230010500310000005750418960|001050031000000575
REG|000265|06/07/2015|19:16:52|493295|335.16|0001230010310310000011750335162|001031031000001175
REG|000266|06/07/2015|19:23:17|493299|167.58|0001230010420310000004440167589|001042031000000444
REG|000267|06/07/2015|19:18:46|493302|251.38|0001230010310310000011740251388|001031031000001174
REG|000268|06/07/2015|19:25:25|493304|335.16|0001230010420310000004490335169|001042031000000449
REG|000269|06/07/2015|19:28:27|493323|418.96|0001230010470310000021740418966|001047031000002174
REG|000270|06/07/2015|19:30:27|493333|251.38|0001230010140310000015970251386|001014031000001597
REG|000271|06/07/2015|19:32:41|493338|418.96|0001230010470310000015910418962|001047031000001591
REG|000272|06/07/2015|19:27:47|493343|418.96|0001230010030310000011250418962|001003031000001125
REG|000273|06/07/2015|19:30:32|493348|418.96|0001230010030310000011230418967|001003031000001123
REG|000274|06/07/2015|19:31:55|493351|418.96|0001230010030310000011260418960|001003031000001126
REG|000275|06/07/2015|19:38:22|493352|426.42|0001230010470310000022040426428|001047031000002204
REG|000276|06/07/2015|19:39:37|493356|255.86|0001230010470310000022060255863|001047031000002206
REG|000277|06/07/2015|19:39:41|493357|418.96|0001230010140310000012920418967|001014031000001292
REG|000278|06/07/2015|19:34:33|493360|418.96|0001230010030310000011210418961|001003031000001121
REG|000279|06/07/2015|19:36:12|493363|418.96|0001230010030310000011240418965|001003031000001124
REG|000280|06/07/2015|19:39:07|493375|251.38|0001230010090310000013050251384|001009031000001305
REG|000281|06/07/2015|19:44:33|493385|418.96|0001230010070310000004840418965|001007031000000484
REG|000282|06/07/2015|19:45:20|493390|167.58|0001230010020310000008970167582|001002031000000897
REG|000283|06/07/2015|19:58:03|493412|418.96|0001230010430310000002620418960|001043031000000262
REG|000284|06/07/2015|20:00:37|493416|418.96|0001230010430310000002670418969|001043031000000267
REG|000285|06/07/2015|20:05:52|493429|251.38|0001230010030310000011990251384|001003031000001199
REG|000286|06/07/2015|20:12:04|493446|418.96|0001230010500310000003550418967|001050031000000355
REG|000287|06/07/2015|20:21:54|493485|418.96|0001230010050310000010750418964|001005031000001075
REG|000288|06/07/2015|20:23:47|493490|418.96|0001230010050310000010710418963|001005031000001071
REG|000289|06/07/2015|20:26:39|493497|167.58|0001230010050310000010130167588|001005031000001013
REG|000290|06/07/2015|20:35:16|493499|418.96|0001230010500310000005770418966|001050031000000577
REG|000291|06/07/2015|20:31:17|493506|418.96|0001230010070310000004820418969|001007031000000482
REG|000292|06/07/2015|21:05:42|493580|418.96|0001230010050310000010740418967|001005031000001074
REG|000293|06/07/2015|20:32:36|493629|255.86|0001230010060310000007190255863|001006031000000719
REG|000294|06/07/2015|22:11:17|493672|251.38|0001230010490310000012130251386|001049031000001213
REG|000295|06/07/2015|22:12:47|493674|418.96|0001230010490310000012160418962|001049031000001216
REG|000296|06/07/2015|22:32:20|493682|167.58|0001230010030310000009320167585|001003031000000932