REG|000001|28/06/2015|10:00:57|468549|682.27|0001230010210310000025750682275|001021031000002575
REG|000002|28/06/2015|11:00:17|468724|418.96|0001230010050310000011930418965|001005031000001193
REG|000003|28/06/2015|11:15:41|468753|335.16|0001230010210310000026250335166|001021031000002625
REG|000004|28/06/2015|11:26:19|468801|418.96|0001230010420310000003580418968|001042031000000358
REG|000005|28/06/2015|11:32:16|468819|418.96|0001230010420310000003560418962|001042031000000356
REG|000006|28/06/2015|11:50:10|468855|418.96|0001230010210310000027680418960|001021031000002768
REG|000007|28/06/2015|12:29:23|468977|418.96|0001230010030310000009200418967|001003031000000920
REG|000008|28/06/2015|13:03:49|469066|677.42|0001230010470110000001160677428|001047011000000116
REG|000009|28/06/2015|13:49:23|469211|418.96|0001230010500310000005770418966|001050031000000577
REG|000010|28/06/2015|14:06:56|469281|293.26|0001230010030310000012410293261|001003031000001241
REG|000011|28/06/2015|15:34:27|469570|251.38|0001230010030310000011150251380|001003031000001115
REG|000012|28/06/2015|16:03:38|469640|418.96|0001230010420310000002550418966|001042031000000255
REG|000013|28/06/2015|16:57:12|469832|251.38|0001230010420310000003190251387|001042031000000319
REG|000014|28/06/2015|16:58:44|469839|251.38|0001230010420310000003200251385|001042031000000320
REG|000015|28/06/2015|17:02:42|469858|251.38|0001230010420310000003210251383|001042031000000321
REG|000016|28/06/2015|17:29:48|469939|418.96|0001230010070310000005310418963|001007031000000531
REG|000017|28/06/2015|17:48:38|469990|418.96|0001230010310310000011130418969|001031031000001113
REG|000018|28/06/2015|17:56:21|470022|167.58|0001230010050310000013360167583|001005031000001336
REG|000019|28/06/2015|17:57:37|470027|418.96|0001230010050310000013380418966|001005031000001338
REG|000020|28/06/2015|18:03:24|470053|418.96|0001230010070310000004970418967|001007031000000497
REG|000021|28/06/2015|19:05:22|470245|418.96|0001230010120310000008830418968|001012031000000883
REG|000022|28/06/2015|19:13:31|470255|793.00|0001230010470110000000070793002|001047011000000007
REG|000023|28/06/2015|19:08:28|470256|418.96|0001230010050310000009780418960|001005031000000978
REG|000024|28/06/2015|19:25:18|470321|418.96|0001230010050310000013370418968|001005031000001337
REG|000025|28/06/2015|19:26:46|470326|418.96|0001230010050310000013340418965|001005031000001334
REG|000026|28/06/2015|19:32:53|470328|404.02|0001230010310310000009010404026|001031031000000901
REG|000027|28/06/2015|19:34:22|470336|404.02|0001230010310310000008990404022|001031031000000899
REG|000028|28/06/2015|18:55:37|470410|418.96|0001230010060310000007600418960|001006031000000760
REG|000029|28/06/2015|18:59:18|470421|418.96|0001230010060310000007620418966|001006031000000762
REG|000030|28/06/2015|19:00:31|470429|418.96|0001230010060310000007560418968|001006031000000756
REG|000031|28/06/2015|19:01:58|470434|418.96|0001230010060310000007610418968|001006031000000761
REG|000032|28/06/2015|19:03:06|470437|418.96|0001230010060310000007590418962|001006031000000759
REG|000033|28/06/2015|20:10:46|470442|418.96|0001230010030310000010760418967|001003031000001076
REG|000034|28/06/2015|19:04:33|470446|418.96|0001230010060310000007550418960|001006031000000755
REG|000035|28/06/2015|19:08:37|470459|418.96|0001230010060310000007570418966|001006031000000757
REG|000036|28/06/2015|19:10:11|470476|418.96|0001230010060310000007580418964|001006031000000758
REG|000037|28/06/2015|19:11:40|470494|418.96|0001230010050310000013320418969|001005031000001332
REG|000038|28/06/2015|21:05:21|470644|484.82|0001230010300310000014510484827|001030031000001451
REG|000039|28/06/2015|21:06:22|470647|418.96|0001230010430310000002670418969|001043031000000267
REG|000040|28/06/2015|21:08:56|470658|418.96|0001230010430310000002620418960|001043031000000262
REG|000041|28/06/2015|21:15:16|470674|418.96|0001230010210310000025660418968|001021031000002566
REG|000042|28/06/2015|21:17:54|470682|335.16|0001230010210310000025650335164|001021031000002565
REG|000043|28/06/2015|21:19:39|470686|418.96|0001230010210310000025620418967|001021031000002562
REG|000044|28/06/2015|21:22:05|470695|418.96|0001230010210310000025640418963|001021031000002564
REG|000045|28/06/2015|21:24:11|470703|418.96|0001230010210310000025670418966|001021031000002567
REG|000046|28/06/2015|21:18:02|470707|418.96|0001230010070310000004850418962|001007031000000485
REG|000047|28/06/2015|21:24:45|470708|793.00|0001230010470110000000010793005|001047011000000001
REG|000048|28/06/2015|21:35:08|470759|418.96|0001230010070310000004820418969|001007031000000482