REG|000001|07/07/2015|07:41:14|493716|418.96|0001230010500310000005780418964|001050031000000578
REG|000002|07/07/2015|07:53:45|493718|418.96|0001230010030310000013020418967|001003031000001302
REG|000003|07/07/2015|08:31:14|493730|251.38|0001230010420310000002010251387|001042031000000201
REG|000004|07/07/2015|08:32:54|493733|418.96|0001230010500310000005760418968|001050031000000576
REG|000005|07/07/2015|08:33:15|493736|418.96|0001230010420310000002030418966|001042031000000203
REG|000006|07/07/2015|08:47:33|493751|335.16|0001230010520310000004090335162|001052031000000409
REG|000007|07/07/2015|08:49:56|493752|418.96|0001230010520310000004100418966|001052031000000410
REG|000008|07/07/2015|09:00:06|493756|418.96|0001230010470310000017110418966|001047031000001711
REG|000009|07/07/2015|09:35:01|493785|251.38|0001230010500310000003010251388|001050031000000301
REG|000010|07/07/2015|09:28:56|493786|418.96|0001230010030310000012920418960|001003031000001292
REG|000011|07/07/2015|09:36:12|493789|251.38|0001230010500310000003020251386|001050031000000302
REG|000012|07/07/2015|09:37:33|493792|418.96|0001230010520310000000890418968|001052031000000089
REG|000013|07/07/2015|09:49:42|493814|586.54|0001230010210310000027060586543|001021031000002706
REG|000014|07/07/2015|09:56:46|493827|167.58|0001230010030310000008930167589|001003031000000893
REG|000015|07/07/2015|09:51:37|493832|502.74|0001230010090310000011480502749|001009031000001148
REG|000016|07/07/2015|09:58:29|493833|167.58|0001230010030310000008950167584|001003031000000895
REG|000017|07/07/2015|10:01:04|493849|418.96|0001230010420310000000140418967|001042031000000014
REG|000018|07/07/2015|10:01:10|493850|335.16|0001230010090310000012490335161|001009031000001249
REG|000019|07/07/2015|10:10:54|493858|418.96|0001230010030310000010740418962|001003031000001074
REG|000020|07/07/2015|10:22:40|493867|251.38|0001230010470310000021630251386|001047031000002163
REG|000021|07/07/2015|10:26:53|493874|335.16|0001230010520310000004060335168|001052031000000406
REG|000022|07/07/2015|10:24:33|493881|426.42|0001230010520310000002540426425|001052031000000254
REG|000023|07/07/2015|10:30:57|493882|418.96|0001230010420310000003670418969|001042031000000367
REG|000024|07/07/2015|10:26:30|493885|426.42|0001230010520310000002570426428|001052031000000257
REG|000025|07/07/2015|10:27:22|493887|418.96|0001230010310310000015610418969|001031031000001561
REG|000026|07/07/2015|10:34:07|493889|418.96|0001230010420310000003680418967|001042031000000368
REG|000027|07/07/2015|10:29:24|493891|170.57|0001230010520310000002530170579|001052031000000253
REG|000028|07/07/2015|10:29:37|493893|418.96|0001230010090310000012470418961|001009031000001247
REG|000029|07/07/2015|10:30:55|493900|341.14|0001230010520310000002550341142|001052031000000255
REG|000030|07/07/2015|10:33:44|493907|418.96|0001230010070310000004690418966|001007031000000469
REG|000031|07/07/2015|10:34:38|493912|418.96|0001230010070310000004680418968|001007031000000468
REG|000032|07/07/2015|10:51:27|493931|251.38|0001230010500310000004790251382|001050031000000479
REG|000033|07/07/2015|10:47:52|493933|335.16|0001230010520310000002400335161|001052031000000240
REG|000034|07/07/2015|10:48:01|493935|418.96|0001230010020310000009000418961|001002031000000900
REG|000035|07/07/2015|10:49:13|493937|335.16|0001230010020310000008960335165|001002031000000896
REG|000036|07/07/2015|10:50:32|493939|335.16|0001230010020310000008990335169|001002031000000899
REG|000037|07/07/2015|10:53:39|493940|418.96|0001230010120310000008130418965|001012031000000813
REG|000038|07/07/2015|10:54:42|493941|418.96|0001230010310310000010630418966|001031031000001063
REG|000039|07/07/2015|10:56:15|493944|418.96|0001230010310310000010600418962|001031031000001060
REG|000040|07/07/2015|11:25:40|493987|167.58|0001230010050310000013230167581|001005031000001323
REG|000041|07/07/2015|11:32:10|493991|335.16|0001230010420310000004500335167|001042031000000450
REG|000042|07/07/2015|11:39:15|494008|418.96|0001230010210310000028310418966|001021031000002831
REG|000043|07/07/2015|11:41:02|494012|418.96|0001230010500310000005730418965|001050031000000573
REG|000044|07/07/2015|11:43:14|494016|418.96|0001230010500310000005720418967|001050031000000572
REG|000045|07/07/2015|11:51:44|494040|255.86|0001230010030310000011690255867|001003031000001169
REG|000046|07/07/2015|11:50:57|494053|404.02|0001230010070310000002960404021|001007031000000296
REG|000047|07/07/2015|11:52:28|494058|404.02|0001230010070310000002900404024|001007031000000290
REG|000048|07/07/2015|12:03:14|494076|251.38|0001230010420310000004550251389|001042031000000455
REG|000049|07/07/2015|12:03:50|494092|586.54|0001230010070310000006050586548|001007031000000605
REG|000050|07/07/2015|12:13:07|494098|565.62|0001230010470310000020940565626|001047031000002094
REG|000051|07/07/2015|12:27:19|494148|418.96|0001230010210310000026900418966|001021031000002690
REG|000052|07/07/2015|12:28:28|494156|418.96|0001230010210310000026900418966|001021031000002690
REG|000053|07/07/2015|12:29:26|494158|418.96|0001230010210310000026900418966|001021031000002690
REG|000054|07/07/2015|12:23:33|494160|418.96|0001230010030310000012910418962|001003031000001291
REG|000055|07/07/2015|12:24:13|494164|251.38|0001230010520310000001240251380|001052031000000124
REG|000056|07/07/2015|12:24:55|494165|418.96|0001230010030310000012910418962|001003031000001291
REG|000057|07/07/2015|12:25:11|494168|426.42|0001230010040310000003640426423|001004031000000364
REG|000058|07/07/2015|12:25:27|494169|418.96|0001230010070310000006420418968|001007031000000642
REG|000059|07/07/2015|12:38:38|494178|418.96|0001230010210310000028280418962|001021031000002828
REG|000060|07/07/2015|12:41:52|494190|418.96|0001230010030310000012990418965|001003031000001299
REG|000061|07/07/2015|12:43:21|494197|418.96|0001230010030310000012980418967|001003031000001298
REG|000062|07/07/2015|12:43:31|494198|418.96|0001230010210310000028340418960|001021031000002834
REG|000063|07/07/2015|12:44:55|494203|418.96|0001230010420310000003950418960|001042031000000395
REG|000064|07/07/2015|12:38:57|494204|170.57|0001230010090310000010960170571|001009031000001096
REG|000065|07/07/2015|12:48:51|494208|418.96|0001230010420310000004030418962|001042031000000403
REG|000066|07/07/2015|12:50:59|494220|418.96|0001230010420310000002580418960|001042031000000258
REG|000067|07/07/2015|12:52:44|494230|335.16|0001230010420310000002540335163|001042031000000254
REG|000068|07/07/2015|12:54:32|494233|418.96|0001230010210310000027080418966|001021031000002708
REG|000069|07/07/2015|12:54:48|494234|418.96|0001230010420310000002560418964|001042031000000256
REG|000070|07/07/2015|12:48:57|494237|418.96|0001230010030310000012960418961|001003031000001296
REG|000071|07/07/2015|13:12:02|494264|418.96|0001230010310310000011770418964|001031031000001177
REG|000072|07/07/2015|13:12:47|494265|418.96|0001230010310310000011770418964|001031031000001177
REG|000073|07/07/2015|13:13:30|494266|418.96|0001230010310310000011770418964|001031031000001177
REG|000074|07/07/2015|13:13:58|494267|418.96|0001230010040310000015260418969|001004031000001526
REG|000075|07/07/2015|13:14:57|494270|418.96|0001230010210310000018340418961|001021031000001834
REG|000076|07/07/2015|13:14:58|494271|255.86|0001230010500310000004300255865|001050031000000430
REG|000077|07/07/2015|13:14:59|494272|418.96|0001230010310310000011760418966|001031031000001176
REG|000078|07/07/2015|13:15:40|494275|418.96|0001230010310310000011760418966|001031031000001176
REG|000079|07/07/2015|13:17:36|494282|251.38|0001230010040310000015290251380|001004031000001529
REG|000080|07/07/2015|13:22:24|494302|335.16|0001230010020310000007870335166|001002031000000787
REG|000081|07/07/2015|13:33:36|494316|418.96|0001230010210310000018340418961|001021031000001834
REG|000082|07/07/2015|13:33:41|494329|418.96|0001230010090310000012460418963|001009031000001246
REG|000083|07/07/2015|13:37:54|494337|426.42|0001230010090310000010950426421|001009031000001095
REG|000084|07/07/2015|13:49:46|494347|251.38|0001230010030310000012970251386|001003031000001297
REG|000085|07/07/2015|13:50:50|494349|251.38|0001230010030310000008970251384|001003031000000897
REG|000086|07/07/2015|13:54:37|494356|418.96|0001230010210310000024330418961|001021031000002433
REG|000087|07/07/2015|14:00:38|494385|251.38|0001230010520310000004550251388|001052031000000455
REG|000088|07/07/2015|14:08:05|494389|251.38|0001230010140310000015180251382|001014031000001518
REG|000089|07/07/2015|14:08:56|494391|418.96|0001230010520310000000870418962|001052031000000087
REG|000090|07/07/2015|14:10:00|494392|83.08|0001230010140310000015200083088|001014031000001520
REG|000091|07/07/2015|14:12:17|494396|335.16|0001230010140310000015190335167|001014031000001519
REG|000092|07/07/2015|14:10:55|494403|418.96|0001230010310310000015450418962|001031031000001545
REG|000093|07/07/2015|14:17:47|494408|586.54|0001230010210310000024410586547|001021031000002441
REG|000094|07/07/2015|14:12:19|494411|418.96|0001230010310310000015430418967|001031031000001543
REG|000095|07/07/2015|14:20:08|494425|502.74|0001230010070310000004350502745|001007031000000435
REG|000096|07/07/2015|14:21:19|494427|867.78|0001230010070110000000560867781|001007011000000056
REG|000097|07/07/2015|14:24:15|494439|418.96|0001230010520310000003420418961|001052031000000342
REG|000098|07/07/2015|14:30:26|494440|167.58|0001230010300310000017030167582|001030031000001703
REG|000099|07/07/2015|14:29:53|494449|418.96|0001230010030310000013010418969|001003031000001301
REG|000100|07/07/2015|14:43:11|494464|251.38|0001230010210310000025170251388|001021031000002517
REG|000101|07/07/2015|14:45:37|494466|335.16|0001230010210310000018840335160|001021031000001884
REG|000102|07/07/2015|14:43:41|494477|418.96|0001230010310310000015230418969|001031031000001523
REG|000103|07/07/2015|14:45:50|494483|620.04|0001230010310310000015210620048|001031031000001521
REG|000104|07/07/2015|14:52:36|494484|586.54|0001230010090310000011500586540|001009031000001150
REG|000105|07/07/2015|14:55:11|494494|418.96|0001230010310310000012760418964|001031031000001276
REG|000106|07/07/2015|15:06:01|494519|418.96|0001230010500310000000410418963|001050031000000041
REG|000107|07/07/2015|15:17:18|494560|418.96|0001230010520310000004750418969|001052031000000475
REG|000108|07/07/2015|15:24:57|494562|418.96|0001230010140310000015110418960|001014031000001511
REG|000109|07/07/2015|15:30:21|494579|418.96|0001230010210310000015160418964|001021031000001516
REG|000110|07/07/2015|15:38:08|494606|418.96|0001230010520310000002440418969|001052031000000244
REG|000111|07/07/2015|15:40:32|494609|418.96|0001230010520310000002410418965|001052031000000241
REG|000112|07/07/2015|15:51:20|494615|418.96|0001230010210310000018850418963|001021031000001885
REG|000113|07/07/2015|15:54:44|494622|565.62|0001230010300310000016880565622|001030031000001688
REG|000114|07/07/2015|15:49:08|494625|418.96|0001230010520310000004280418968|001052031000000428
REG|000115|07/07/2015|15:56:55|494633|484.82|0001230010300310000016870484826|001030031000001687
REG|000116|07/07/2015|16:01:33|494637|620.04|0001230010310310000015220620046|001031031000001522
REG|000117|07/07/2015|16:01:32|494650|167.58|0001230010310310000010700167584|001031031000001070
REG|000118|07/07/2015|16:05:16|494660|418.96|0001230010070310000006390418964|001007031000000639
REG|000119|07/07/2015|16:14:58|494670|418.96|0001230010310310000012770418962|001031031000001277
REG|000120|07/07/2015|16:15:24|494673|255.86|0001230010110310000007000255863|001011031000000700
REG|000121|07/07/2015|16:15:46|494675|335.16|0001230010520310000003510335166|001052031000000351
REG|000122|07/07/2015|16:17:43|494683|255.86|0001230010210310000025600255868|001021031000002560
REG|000123|07/07/2015|16:18:45|494685|335.16|0001230010520310000003520335164|001052031000000352
REG|000124|07/07/2015|16:19:02|494687|418.96|0001230010520310000000830418961|001052031000000083
REG|000125|07/07/2015|16:20:01|494692|418.96|0001230010520310000003530418968|001052031000000353
REG|000126|07/07/2015|16:20:34|494697|418.96|0001230010310310000012730418961|001031031000001273
REG|000127|07/07/2015|16:20:40|494698|418.96|0001230010520310000000850418966|001052031000000085
REG|000128|07/07/2015|16:22:40|494702|418.96|0001230010520310000000820418963|001052031000000082
REG|000129|07/07/2015|16:16:46|494703|418.96|0001230010490310000009850418963|001049031000000985
REG|000130|07/07/2015|16:23:43|494709|418.96|0001230010520310000000840418969|001052031000000084
REG|000131|07/07/2015|16:23:55|494711|418.96|0001230010030310000012520418964|001003031000001252
REG|000132|07/07/2015|16:18:12|494713|418.96|0001230010490310000009840418966|001049031000000984
REG|000133|07/07/2015|16:19:16|494717|418.96|0001230010490310000009830418968|001049031000000983
REG|000134|07/07/2015|16:25:34|494719|418.96|0001230010520310000000860418964|001052031000000086
REG|000135|07/07/2015|16:23:17|494727|418.96|0001230010490310000009820418960|001049031000000982
REG|000136|07/07/2015|16:26:23|494740|418.96|0001230010490310000009800418964|001049031000000980
REG|000137|07/07/2015|14:29:41|494748|418.96|0001230010380310000006130418964|001038031000000613
REG|000138|07/07/2015|16:38:59|494757|586.54|0001230010310310000015630586548|001031031000001563
REG|000139|07/07/2015|16:41:23|494765|586.54|0001230010310310000015620586540|001031031000001562
REG|000140|07/07/2015|16:35:15|494766|418.96|0001230010520310000002510418964|001052031000000251
REG|000141|07/07/2015|16:36:06|494769|418.96|0001230010110310000007900418967|001011031000000790
REG|000142|07/07/2015|16:35:07|494774|418.96|0001230010020310000007900418966|001002031000000790
REG|000143|07/07/2015|16:55:32|494789|418.96|0001230010430310000005900418964|001043031000000590
REG|000144|07/07/2015|16:58:02|494792|502.74|0001230010300310000015600502741|001030031000001560
REG|000145|07/07/2015|16:56:38|494805|335.16|0001230010420310000003570335164|001042031000000357
REG|000146|07/07/2015|16:59:43|494815|335.16|0001230010420310000003590335160|001042031000000359
REG|000147|07/07/2015|17:02:53|494820|418.96|0001230010420310000003750418962|001042031000000375
REG|000148|07/07/2015|17:04:10|494821|418.96|0001230010050310000012230418960|001005031000001223
REG|000149|07/07/2015|17:11:55|494829|418.96|0001230010490310000006110418965|001049031000000611
REG|000150|07/07/2015|17:16:06|494839|404.02|0001230010500310000005960404024|001050031000000596
REG|000151|07/07/2015|17:09:59|494840|167.58|0001230010090310000010670167586|001009031000001067
REG|000152|07/07/2015|17:17:38|494846|404.02|0001230010500310000005950404026|001050031000000595
REG|000153|07/07/2015|17:17:40|494847|418.96|0001230010500310000006430418966|001050031000000643
REG|000154|07/07/2015|17:19:32|494852|418.96|0001230010030310000011880418960|001003031000001188
REG|000155|07/07/2015|17:20:07|494854|167.58|0001230010500310000006420167581|001050031000000642
REG|000156|07/07/2015|17:20:39|494858|251.38|0001230010110310000005570251387|001011031000000557
REG|000157|07/07/2015|17:19:33|494869|418.96|0001230010310310000010980418962|001031031000001098
REG|000158|07/07/2015|17:28:14|494875|418.96|0001230010210310000025040418969|001021031000002504
REG|000159|07/07/2015|17:29:43|494881|335.16|0001230010470310000020560335169|001047031000002056
REG|000160|07/07/2015|17:31:16|494884|335.16|0001230010470310000020570335167|001047031000002057
REG|000161|07/07/2015|17:32:58|494895|335.16|0001230010470310000020530335166|001047031000002053
REG|000162|07/07/2015|17:29:56|494905|418.96|0001230010060310000007130418969|001006031000000713
REG|000163|07/07/2015|17:31:30|494910|255.86|0001230010060310000007210255869|001006031000000721
REG|000164|07/07/2015|17:33:00|494913|341.14|0001230010040310000006650341143|001004031000000665
REG|000165|07/07/2015|17:46:00|494935|477.59|0001230010470310000022050477592|001047031000002205
REG|000166|07/07/2015|17:49:47|494945|251.38|0001230010110310000006190251385|001011031000000619
REG|000167|07/07/2015|17:48:05|494954|251.38|0001230010090310000011600251383|001009031000001160
REG|000168|07/07/2015|17:54:40|494955|335.16|0001230010500310000001190335161|001050031000000119
REG|000169|07/07/2015|18:07:20|494988|426.42|0001230010030310000011720426421|001003031000001172
REG|000170|07/07/2015|18:12:23|495013|418.96|0001230010210310000019950418960|001021031000001995
REG|000171|07/07/2015|18:14:48|495041|251.38|0001230010090310000010690251386|001009031000001069
REG|000172|07/07/2015|18:20:41|495060|418.96|0001230010070310000004700418964|001007031000000470
REG|000173|07/07/2015|18:21:30|495065|586.54|0001230010110310000008440586545|001011031000000844
REG|000174|07/07/2015|18:19:56|495070|335.16|0001230010020310000007850335160|001002031000000785
REG|000175|07/07/2015|18:30:59|495090|418.96|0001230010090310000011510418965|001009031000001151
REG|000176|07/07/2015|18:39:19|495097|167.58|0001230010030310000008940167587|001003031000000894
REG|000177|07/07/2015|18:33:24|495100|335.16|0001230010460310000006320335161|001046031000000632
REG|000178|07/07/2015|18:40:42|495104|251.38|0001230010030310000008980251382|001003031000000898
REG|000179|07/07/2015|18:35:52|495109|335.16|0001230010090310000010640335164|001009031000001064
REG|000180|07/07/2015|18:50:22|495139|418.96|0001230010420310000000460418969|001042031000000046
REG|000181|07/07/2015|18:52:10|495146|418.96|0001230010520310000004320418960|001052031000000432
REG|000182|07/07/2015|18:52:58|495151|418.96|0001230010420310000000450418961|001042031000000045
REG|000183|07/07/2015|18:54:24|495156|418.96|0001230010420310000000400418962|001042031000000040
REG|000184|07/07/2015|18:55:13|495158|418.96|0001230010520310000004330418968|001052031000000433
REG|000185|07/07/2015|18:57:19|495164|418.96|0001230010520310000004310418962|001052031000000431
REG|000186|07/07/2015|18:53:07|495170|426.42|0001230010020310000011390426422|001002031000001139
REG|000187|07/07/2015|18:55:32|495187|418.96|0001230010120310000009260418965|001012031000000926
REG|000188|07/07/2015|19:06:33|495193|938.12|0001230010210310000025760938121|001021031000002576
REG|000189|07/07/2015|18:57:46|495195|418.96|0001230010120310000009230418962|001012031000000923
REG|000190|07/07/2015|19:09:44|495202|418.96|0001230010140310000016900418962|001014031000001690
REG|000191|07/07/2015|19:11:18|495210|418.96|0001230010140310000016910418960|001014031000001691
REG|000192|07/07/2015|19:16:15|495225|418.96|0001230010140310000016920418968|001014031000001692
REG|000193|07/07/2015|19:17:57|495231|418.96|0001230010140310000016930418966|001014031000001693
REG|000194|07/07/2015|19:18:15|495232|418.96|0001230010500310000001640418963|001050031000000164
REG|000195|07/07/2015|19:22:18|495267|418.96|0001230010120310000009220418964|001012031000000922
REG|000196|07/07/2015|18:26:59|495274|209.48|0001230010060310000007960209488|001006031000000796
REG|000197|07/07/2015|19:51:57|495329|251.38|0001230010090310000010890251384|001009031000001089
REG|000198|07/07/2015|20:01:54|495360|418.96|0001230010070310000004330418962|001007031000000433
REG|000199|07/07/2015|20:18:38|495378|418.96|0001230010490310000000380418961|001049031000000038
REG|000200|07/07/2015|20:24:29|495389|426.42|0001230010030310000012480426429|001003031000001248
REG|000201|07/07/2015|20:25:15|495393|341.14|0001230010470310000022080341149|001047031000002208
REG|000202|07/07/2015|20:19:39|495395|520.67|0001230010300110000000200520677|001030011000000020
REG|000203|07/07/2015|20:27:05|495398|341.14|0001230010470310000022030341140|001047031000002203
REG|000204|07/07/2015|20:40:06|495433|418.96|0001230010520310000004300418964|001052031000000430
REG|000205|07/07/2015|20:42:17|495438|426.42|0001230010500310000004330426429|001050031000000433
REG|000206|07/07/2015|20:53:57|495456|418.96|0001230010500310000003420418965|001050031000000342
REG|000207|07/07/2015|21:01:15|495464|511.07|0001230010210310000025780511072|001021031000002578
REG|000208|07/07/2015|20:57:22|495470|418.96|0001230010020310000011960418965|001002031000001196
REG|000209|07/07/2015|21:00:08|495475|418.96|0001230010020310000011950418967|001002031000001195
REG|000210|07/07/2015|19:00:45|495476|251.38|0001230010380310000005380251380|001038031000000538
REG|000211|07/07/2015|21:29:38|495536|335.16|0001230010470310000015680335164|001047031000001568
REG|000212|07/07/2015|21:31:10|495543|418.96|0001230010090310000009080418969|001009031000000908
REG|000213|07/07/2015|21:30:07|495556|754.12|0001230010070310000006400754127|001007031000000640
REG|000214|07/07/2015|21:37:48|495559|418.96|0001230010500310000006050418965|001050031000000605
REG|000215|07/07/2015|21:45:33|495566|418.96|0001230010470310000020820418961|001047031000002082
REG|000216|07/07/2015|21:51:02|495574|418.96|0001230010030310000011360418969|001003031000001136
REG|000217|07/07/2015|20:55:36|495583|426.42|0001230010380310000003140426426|001038031000000314
REG|000218|07/07/2015|22:07:47|495589|703.84|0001230010470310000015690703849|001047031000001569
REG|000219|07/07/2015|22:19:23|495604|335.16|0001230010520310000004460335164|001052031000000446
REG|000220|07/07/2015|22:33:21|495616|418.96|0001230010490310000014410418966|001049031000001441
REG|000221|07/07/2015|22:38:38|495618|335.16|0001230010210310000024420335166|001021031000002442
REG|000222|07/07/2015|22:40:44|495621|418.96|0001230010140310000016940418964|001014031000001694
REG|000223|07/07/2015|22:41:58|495622|418.96|0001230010140310000016880418966|001014031000001688