REG|000001|11/07/2015|08:24:36|502265|167.58|0001230010310310000012560167589|001031031000001256
REG|000002|11/07/2015|08:32:19|502266|418.96|0001230010420310000004280418969|001042031000000428
REG|000003|11/07/2015|09:22:06|502309|418.96|0001230010310310000015510418960|001031031000001551
REG|000004|11/07/2015|09:18:48|502312|404.02|0001230010070310000006300404021|001007031000000630
REG|000005|11/07/2015|10:05:48|502362|251.38|0001230010030310000011130251385|001003031000001113
REG|000006|11/07/2015|10:12:38|502364|418.96|0001230010300310000014690418967|001030031000001469
REG|000007|11/07/2015|10:14:29|502366|418.96|0001230010300310000014690418967|001030031000001469
REG|000008|11/07/2015|10:14:38|502367|251.38|0001230010480310000000550251384|001048031000000055
REG|000009|11/07/2015|10:26:03|502380|251.38|0001230010300310000015660251387|001030031000001566
REG|000010|11/07/2015|10:26:52|502381|251.38|0001230010300310000015660251387|001030031000001566
REG|000011|11/07/2015|10:22:57|502385|418.96|0001230010310310000012060418961|001031031000001206
REG|000012|11/07/2015|10:39:47|502394|426.42|0001230010430310000004910426422|001043031000000491
REG|000013|11/07/2015|10:44:44|502401|418.96|0001230010140310000010060418961|001014031000001006
REG|000014|11/07/2015|10:47:31|502410|418.96|0001230010140310000010060418961|001014031000001006
REG|000015|11/07/2015|11:11:54|502466|323.21|0001230010490310000002550323211|001049031000000255
REG|000016|11/07/2015|11:32:20|502505|418.96|0001230010140310000016130418964|001014031000001613
REG|000017|11/07/2015|11:42:31|502533|418.96|0001230010470310000016710418962|001047031000001671
REG|000018|11/07/2015|11:43:59|502537|404.02|0001230010500310000005940404029|001050031000000594
REG|000019|11/07/2015|11:40:47|502546|418.96|0001230010030310000006380418965|001003031000000638
REG|000020|11/07/2015|11:47:13|502547|404.02|0001230010500310000006010404022|001050031000000601
REG|000021|11/07/2015|11:48:15|502550|404.02|0001230010500310000006040404026|001050031000000604
REG|000022|11/07/2015|11:49:17|502551|404.02|0001230010500310000006000404024|001050031000000600
REG|000023|11/07/2015|11:50:24|502554|404.02|0001230010500310000006020404020|001050031000000602
REG|000024|11/07/2015|11:51:59|502557|418.96|0001230010030310000010370418969|001003031000001037
REG|000025|11/07/2015|10:01:14|502592|418.96|0001230010370310000004390418966|001037031000000439
REG|000026|11/07/2015|10:05:31|502601|418.96|0001230010370310000004440418966|001037031000000444
REG|000027|11/07/2015|12:14:35|502617|418.96|0001230010090310000009740418961|001009031000000974
REG|000028|11/07/2015|12:14:47|502618|418.96|0001230010090310000009970418962|001009031000000997
REG|000029|11/07/2015|12:21:29|502620|418.96|0001230010110310000008520418965|001011031000000852
REG|000030|11/07/2015|12:18:53|502630|418.96|0001230010090310000009980418960|001009031000000998
REG|000031|11/07/2015|12:34:37|502651|251.38|0001230010520310000001270251383|001052031000000127
REG|000032|11/07/2015|12:40:04|502667|418.96|0001230010520310000001260418968|001052031000000126
REG|000033|11/07/2015|12:38:31|502673|418.96|0001230010110310000008000418964|001011031000000800
REG|000034|11/07/2015|12:42:46|502681|167.58|0001230010030310000013080167587|001003031000001308
REG|000035|11/07/2015|12:54:07|502694|418.96|0001230010140310000015380418963|001014031000001538
REG|000036|11/07/2015|12:54:39|502696|418.96|0001230010490310000005160418966|001049031000000516
REG|000037|11/07/2015|12:55:25|502702|586.54|0001230010110310000008940586540|001011031000000894
REG|000038|11/07/2015|13:11:38|502739|418.96|0001230010480310000000320418966|001048031000000032
REG|000039|11/07/2015|13:13:17|502747|251.38|0001230010500310000004670251387|001050031000000467
REG|000040|11/07/2015|13:14:38|502752|251.38|0001230010500310000004660251389|001050031000000466
REG|000041|11/07/2015|13:15:59|502756|167.58|0001230010500310000004680167581|001050031000000468
REG|000042|11/07/2015|13:17:14|502760|418.96|0001230010430310000008260418962|001043031000000826
REG|000043|11/07/2015|13:17:17|502761|418.96|0001230010500310000004650418964|001050031000000465
REG|000044|11/07/2015|13:18:39|502764|418.96|0001230010500310000004690418966|001050031000000469
REG|000045|11/07/2015|13:19:43|502767|167.58|0001230010500310000004640167580|001050031000000464
REG|000046|11/07/2015|12:21:44|502783|418.96|0001230010060310000008180418966|001006031000000818
REG|000047|11/07/2015|13:33:20|502792|418.96|0001230010300310000016390418965|001030031000001639
REG|000048|11/07/2015|13:38:19|502802|418.96|0001230010210310000015180418960|001021031000001518
REG|000049|11/07/2015|13:47:48|502826|167.58|0001230010030310000010780167586|001003031000001078
REG|000050|11/07/2015|13:50:36|502832|251.38|0001230010140310000014970251389|001014031000001497
REG|000051|11/07/2015|13:51:46|502837|418.96|0001230010040310000016930418967|001004031000001693
REG|000052|11/07/2015|13:58:00|502849|418.96|0001230010420310000004080418961|001042031000000408
REG|000053|11/07/2015|14:00:37|502855|418.96|0001230010420310000002560418964|001042031000000256
REG|000054|11/07/2015|14:02:22|502856|335.16|0001230010420310000002540335163|001042031000000254
REG|000055|11/07/2015|14:03:52|502862|418.96|0001230010420310000002580418960|001042031000000258
REG|000056|11/07/2015|14:05:02|502877|251.38|0001230010050310000011950251387|001005031000001195
REG|000057|11/07/2015|14:10:49|502885|418.96|0001230010090310000009770418964|001009031000000977
REG|000058|11/07/2015|14:20:53|502894|418.96|0001230010060310000005670418969|001006031000000567
REG|000059|11/07/2015|13:16:22|502896|167.58|0001230010050310000011240167583|001005031000001124
REG|000060|11/07/2015|14:30:17|502912|418.96|0001230010310310000015480418966|001031031000001548
REG|000061|11/07/2015|14:31:28|502916|418.96|0001230010310310000015470418968|001031031000001547
REG|000062|11/07/2015|14:32:34|502921|418.96|0001230010310310000015490418964|001031031000001549
REG|000063|11/07/2015|14:43:22|502952|980.35|0001230010210310000026710980353|001021031000002671
REG|000064|11/07/2015|14:47:31|502959|418.96|00012300101403100000153504189669|001014031000001535
REG|000065|11/07/2015|14:52:06|502970|418.96|0001230010420310000003920418967|001042031000000392
REG|000066|11/07/2015|14:48:00|502975|418.96|0001230010420310000001150418962|001042031000000115
REG|000067|11/07/2015|14:50:11|502982|83.80|0001230010030310000012040083801|001003031000001204
REG|000068|11/07/2015|14:51:09|502984|83.80|0001230010030310000012040083801|001003031000001204
REG|000069|11/07/2015|15:16:41|503012|418.96|0001230010210310000025130418960|001021031000002513
REG|000070|11/07/2015|15:31:53|503044|167.58|0001230010420310000004420167583|001042031000000442
REG|000071|11/07/2015|15:27:17|503048|586.54|0001230010070310000006010586547|001007031000000601
REG|000072|11/07/2015|15:34:35|503050|167.58|0001230010520310000002180167586|001052031000000218
REG|000073|11/07/2015|15:31:42|503058|251.38|0001230010090310000011840251383|001009031000001184
REG|000074|11/07/2015|15:33:49|503062|418.96|0001230010090310000011810418962|001009031000001181
REG|000075|11/07/2015|15:36:21|503070|251.38|0001230010090310000011800251381|001009031000001180
REG|000076|11/07/2015|15:39:00|503073|251.38|0001230010090310000011820251387|001009031000001182
REG|000077|11/07/2015|15:40:21|503077|418.96|0001230010090310000011850418963|001009031000001185
REG|000078|11/07/2015|15:42:25|503079|251.38|0001230010090310000011830251385|001009031000001183
REG|000079|11/07/2015|15:45:16|503085|335.16|0001230010090310000011790335160|001009031000001179
REG|000080|11/07/2015|16:09:46|503121|418.96|0001230010500310000006180418968|001050031000000618
REG|000081|11/07/2015|16:22:24|503138|418.96|0001230010430310000008660418968|001043031000000866
REG|000082|11/07/2015|14:48:15|503185|502.74|0001230010380310000005970502747|001038031000000597
REG|000083|11/07/2015|16:56:27|503188|418.96|0001230010500310000003550418967|001050031000000355
REG|000084|11/07/2015|17:02:51|503211|335.16|0001230010020310000010950335163|001002031000001095
REG|000085|11/07/2015|17:07:58|503223|251.38|0001230010050310000011670251386|001005031000001167
REG|000086|11/07/2015|17:09:45|503227|167.58|0001230010050310000011690167588|001005031000001169
REG|000087|11/07/2015|17:40:42|503277|418.96|0001230010110310000004970418969|001011031000000497
REG|000088|11/07/2015|17:41:26|503278|418.96|0001230010310310000012990418966|001031031000001299
REG|000089|11/07/2015|17:42:15|503279|418.96|0001230010110310000004930418968|001011031000000493
REG|000090|11/07/2015|17:42:41|503280|418.96|0001230010500310000004860418960|001050031000000486
REG|000091|11/07/2015|17:43:31|503282|418.96|0001230010110310000004940418966|001011031000000494
REG|000092|11/07/2015|17:44:59|503284|251.38|0001230010110310000004960251388|001011031000000496
REG|000093|11/07/2015|16:46:27|503290|255.86|0001230010060310000007210255869|001006031000000721
REG|000094|11/07/2015|17:58:44|503301|251.38|0001230010490310000014130251382|001049031000001413
REG|000095|11/07/2015|17:53:40|503302|335.16|0001230010310310000014970335160|001031031000001497
REG|000096|11/07/2015|17:56:56|503308|418.96|0001230010030310000011100418964|001003031000001110
REG|000097|11/07/2015|17:59:12|503315|251.38|0001230010090310000012260251382|001009031000001226
REG|000098|11/07/2015|18:12:58|503334|418.96|0001230010110310000008010418962|001011031000000801
REG|000099|11/07/2015|18:41:04|503375|251.38|0001230010300310000016330251385|001030031000001633
REG|000100|11/07/2015|17:45:08|503393|170.57|0001230010060310000007200170573|001006031000000720
REG|000101|11/07/2015|19:08:53|503434|418.96|0001230010120310000009460418963|001012031000000946
REG|000102|11/07/2015|19:28:54|503461|418.96|0001230010420310000000670418965|001042031000000067
REG|000103|11/07/2015|19:55:28|503529|335.16|0001230010520310000000180335161|001052031000000018
REG|000104|11/07/2015|20:25:33|503583|846.78|0001230010470110000001280846788|001047011000000128
REG|000105|11/07/2015|20:38:39|503615|251.38|0001230010500310000005810251385|001050031000000581
REG|000106|11/07/2015|21:11:59|503676|846.78|0001230010470110000000320846782|001047011000000032
REG|000107|11/07/2015|21:11:59|503682|418.96|0001230010050310000013240418966|001005031000001324
REG|000108|11/07/2015|21:27:47|503698|418.96|0001230010120310000009480418969|001012031000000948
REG|000109|11/07/2015|21:31:06|503700|418.96|0001230010120310000009470418961|001012031000000947
REG|000110|11/07/2015|21:31:26|503701|426.42|0001230010030110000000400426425|001003011000000040
REG|000111|11/07/2015|22:29:06|503740|251.38|0001230010030310000012090251381|001003031000001209
REG|000112|12/07/2015|00:08:36|503755|418.96|0001230010140310000017710418960|001014031000001771