2|01/02/15|A|15|00|692||00104703100000012500|404.02|00001746
4|01/02/15|A|15|00|692||00104303100000041500|404.02|00001748
6|01/02/15|A|15|00|692||00104303100000022500|426.42|00001811
8|01/02/15|A|15|00|692||00104303100000022500|426.42|00001812
10|01/02/15|A|15|00|692||00104303100000044900|418.96|00001970
12|01/02/15|A|15|00|692||00104303100000044600|418.96|00001971
14|01/02/15|A|15|00|692||00104303100000044700|418.96|00001972
16|01/02/15|A|15|00|692||00104703100000012400|418.96|00001981
20|01/02/15|A|15|00|692||00104703100000012300|426.42|00002005
22|01/02/15|A|15|00|692||00104303100000022900|122.00|00002008
24|01/02/15|A|15|00|692||00104303100000055200|418.96|00002016
26|01/02/15|A|15|00|692||00104303100000036000|418.96|00002109
28|01/02/15|A|15|00|6913||00100203100000086800|418.96|00003785
30|01/02/15|A|15|00|4809||00100703100000019200|404.02|00006159
32|01/02/15|A|15|00|4809||00100703100000019800|404.02|00006160
34|01/02/15|A|15|00|4809||00100703100000020200|1,131.25|00006161